{
  "id": "9bff55f5-114d-4d9e-958d-17ecf2cff0f5",
  "parentId": "6d21418d-40b0-42dd-8c67-210760aca13d",
  "rootParentId": "6d21418d-40b0-42dd-8c67-210760aca13d",
  "name": "365 Salesforce live chat escalate - success",
  "auto": true,
  "contexts": [
    "salesforcelivechatescalate-followup"
  ],
  "responses": [
    {
      "resetContexts": false,
      "action": "salesforcelivechatescalate.salesforcelivechatescalate-custom",
      "affectedContexts": [],
      "parameters": [],
      "messages": [
        {
          "type": 0,
          "lang": "en",
          "condition": "",
          "speech": "Thanks, we are connecting you to the next available team member."
        },
        {
          "type": 4,
          "lang": "en",
          "condition": "",
          "payload": {
            "invokeClass": "invokeLiveAgent",
            "buttonId": "57328000000fxcV"
          }
        },
        {
          "type": 4,
          "lang": "en",
          "condition": "",
          "payload": {
            "preInvokeClass": "NF_GenerateMonashSampleCase",
            "params": {
              "prompt": "Your case has been logged and a representative will follow up with you as soon as possible. Your case # is CASENUMBER."
            }
          }
        }
      ],
      "defaultResponsePlatforms": {},
      "speech": []
    }
  ],
  "priority": 500000,
  "webhookUsed": false,
  "webhookForSlotFilling": false,
  "fallbackIntent": false,
  "events": [
    {
      "name": "chat_available_escalate"
    }
  ],
  "conditionalResponses": [],
  "condition": "",
  "conditionalFollowupEvents": []
}