{
  "id": "3cb131af-0cc4-43e8-833e-d8ea93927c03",
  "name": "365 Salesforce live chat feedback",
  "auto": true,
  "contexts": [],
  "responses": [
    {
      "resetContexts": false,
      "affectedContexts": [
        {
          "name": "salesforcefeedback-followup",
          "parameters": {},
          "lifespan": 2
        }
      ],
      "parameters": [],
      "messages": [
        {
          "type": 0,
          "lang": "en",
          "condition": "",
          "speech": "Please help me improve. Was I able to answer your question?"
        },
        {
          "type": 4,
          "lang": "en",
          "condition": "",
          "payload": {
            "quickReplies": [
              {
                "text": "Yes",
                "payload": "Yes"
              },
              {
                "text": "No",
                "payload": "No"
              }
            ]
          }
        }
      ],
      "defaultResponsePlatforms": {},
      "speech": []
    }
  ],
  "priority": 500000,
  "webhookUsed": false,
  "webhookForSlotFilling": false,
  "fallbackIntent": false,
  "events": [
    {
      "name": "end_live_chat"
    }
  ],
  "conditionalResponses": [],
  "condition": "",
  "conditionalFollowupEvents": []
}