{
  "id": "50dec7c5-b6f3-4a7a-b50a-537f33eb1edf",
  "parentId": "608734e8-db69-44ce-a9d1-7507050d31ae",
  "rootParentId": "3cb131af-0cc4-43e8-833e-d8ea93927c03",
  "name": "365 Salesforce live chat feedback - no - escalate options",
  "auto": true,
  "contexts": [
    "salesforcefeedback-no-followup"
  ],
  "responses": [
    {
      "resetContexts": false,
      "action": "salesforcefeedback.salesforcefeedback-no.salesforcefeedback-no-custom",
      "affectedContexts": [
        {
          "name": "salesforcefeedback-no-escalateoptions-followup",
          "parameters": {},
          "lifespan": 2
        }
      ],
      "parameters": [],
      "messages": [
        {
          "type": 4,
          "lang": "en",
          "condition": "",
          "payload": {
            "preInvokeClass": "checkAgentAvailability",
            "params": {
              "available": "chat_available_support",
              "unavailable": "chat_unavailable",
              "error": "chat_unavailable",
              "closed": "chat_unavailable",
              "is_event": true
            },
            "ButtonId": "57328000000fxcV"
          }
        }
      ],
      "defaultResponsePlatforms": {},
      "speech": []
    }
  ],
  "priority": 500000,
  "webhookUsed": false,
  "webhookForSlotFilling": false,
  "fallbackIntent": false,
  "events": [
    {
      "name": "salesforce_escalate_checkAgentStatus"
    }
  ],
  "conditionalResponses": [],
  "condition": "",
  "conditionalFollowupEvents": []
}