[
  {
    "id": "10191fc6-5432-4317-a992-24b8174fab78",
    "data": [
      {
        "text": "How to get ",
        "userDefined": false
      },
      {
        "text": "deferred exam",
        "alias": "DEF",
        "meta": "@DEF",
        "userDefined": false
      },
      {
        "text": " time",
        "userDefined": false
      }
    ],
    "isTemplate": false,
    "count": 0,
    "updated": 0
  },
  {
    "id": "d10747d1-1e87-4f91-8c2f-9314feda0c18",
    "data": [
      {
        "text": "How to get my ",
        "userDefined": false
      },
      {
        "text": "deferred exam",
        "alias": "DEF",
        "meta": "@DEF",
        "userDefined": false
      },
      {
        "text": " time",
        "userDefined": false
      }
    ],
    "isTemplate": false,
    "count": 0,
    "updated": 0
  },
  {
    "id": "2ab49a55-d3db-4a52-a5f4-8f527aeda8e3",
    "data": [
      {
        "text": "How do I get my ",
        "userDefined": false
      },
      {
        "text": "deferred exam",
        "alias": "DEF",
        "meta": "@DEF",
        "userDefined": false
      },
      {
        "text": " time",
        "userDefined": false
      }
    ],
    "isTemplate": false,
    "count": 0,
    "updated": 0
  },
  {
    "id": "e802af46-d92b-4abc-9805-ad4e1f39a6cd",
    "data": [
      {
        "text": "I want to get my ",
        "userDefined": false
      },
      {
        "text": "deferred exam",
        "alias": "DEF",
        "meta": "@DEF",
        "userDefined": false
      },
      {
        "text": " time",
        "userDefined": false
      }
    ],
    "isTemplate": false,
    "count": 0,
    "updated": 0
  },
  {
    "id": "6dc7387e-f2f8-4a4d-a30f-410974d5da17",
    "data": [
      {
        "text": "Deferred exam",
        "alias": "DEF",
        "meta": "@DEF",
        "userDefined": false
      },
      {
        "text": " time",
        "userDefined": false
      }
    ],
    "isTemplate": false,
    "count": 0,
    "updated": 0
  },
  {
    "id": "43868f3a-7096-45d9-b624-8eaa464954d4",
    "data": [
      {
        "text": "Can you tell me when the ",
        "userDefined": false
      },
      {
        "text": "deferred exam",
        "alias": "DEF",
        "meta": "@DEF",
        "userDefined": false
      },
      {
        "text": " is for this semester",
        "userDefined": false
      }
    ],
    "isTemplate": false,
    "count": 0,
    "updated": 0
  },
  {
    "id": "d6db2745-f7fd-4804-8318-501b4f8e4c23",
    "data": [
      {
        "text": "I would like to know when the ",
        "userDefined": false
      },
      {
        "text": "deferred exam",
        "alias": "DEF",
        "meta": "@DEF",
        "userDefined": false
      },
      {
        "text": " is for this semester",
        "userDefined": false
      }
    ],
    "isTemplate": false,
    "count": 0,
    "updated": 0
  },
  {
    "id": "d46b69c0-3a06-4cfd-8d25-919dbb706e66",
    "data": [
      {
        "text": "I want to know when the ",
        "userDefined": false
      },
      {
        "text": "deferred exam",
        "alias": "DEF",
        "meta": "@DEF",
        "userDefined": false
      },
      {
        "text": " is for this semester",
        "userDefined": false
      }
    ],
    "isTemplate": false,
    "count": 0,
    "updated": 0
  },
  {
    "id": "98c66612-3efb-49eb-8cd6-4fb9e5c1d0ad",
    "data": [
      {
        "text": "When\u0027s the ",
        "userDefined": false
      },
      {
        "text": "deferred exam",
        "alias": "DEF",
        "meta": "@DEF",
        "userDefined": false
      },
      {
        "text": " for this semester",
        "userDefined": false
      }
    ],
    "isTemplate": false,
    "count": 0,
    "updated": 0
  },
  {
    "id": "bbd5ae21-478d-4c66-9268-c9f8b4480012",
    "data": [
      {
        "text": "I want to know the time and date of my exam that has been ",
        "userDefined": false
      },
      {
        "text": "deferred",
        "alias": "postpone",
        "meta": "@postpone",
        "userDefined": false
      }
    ],
    "isTemplate": false,
    "count": 0,
    "updated": 0
  },
  {
    "id": "d6c122d7-2f56-4037-a68d-4f58d4381a31",
    "data": [
      {
        "text": "What is the time and date of my exam that has been ",
        "userDefined": false
      },
      {
        "text": "deferred",
        "alias": "postpone",
        "meta": "@postpone",
        "userDefined": false
      }
    ],
    "isTemplate": false,
    "count": 0,
    "updated": 0
  },
  {
    "id": "2b932d30-efbc-4844-8a70-0b8d72f328ea",
    "data": [
      {
        "text": "Can you tell me when ",
        "userDefined": false
      },
      {
        "text": "deferred exams",
        "alias": "DEF",
        "meta": "@DEF",
        "userDefined": false
      },
      {
        "text": " will be held",
        "userDefined": false
      }
    ],
    "isTemplate": false,
    "count": 1,
    "updated": 0
  },
  {
    "id": "287625b3-6b9e-4fb9-bce2-cd60d4d01520",
    "data": [
      {
        "text": "I want to know when ",
        "userDefined": false
      },
      {
        "text": "deferred exams",
        "alias": "DEF",
        "meta": "@DEF",
        "userDefined": false
      },
      {
        "text": " will be held",
        "userDefined": false
      }
    ],
    "isTemplate": false,
    "count": 0,
    "updated": 0
  },
  {
    "id": "d11f5ee2-ff3b-4ffa-a7b0-d31f1071d708",
    "data": [
      {
        "text": "I want to know which day I will need to sit my ",
        "userDefined": false
      },
      {
        "text": "deferred exam",
        "alias": "DEF",
        "meta": "@DEF",
        "userDefined": false
      }
    ],
    "isTemplate": false,
    "count": 0,
    "updated": 0
  },
  {
    "id": "f36fec3f-077d-4d84-b8c3-2009ca6fdada",
    "data": [
      {
        "text": "Which day will I need to sit my ",
        "userDefined": false
      },
      {
        "text": "deferred exam",
        "alias": "DEF",
        "meta": "@DEF",
        "userDefined": false
      }
    ],
    "isTemplate": false,
    "count": 0,
    "updated": 0
  },
  {
    "id": "bb0154dd-8266-4140-8d13-761a10e64181",
    "data": [
      {
        "text": "Can you tell me when I will need to sit my ",
        "userDefined": false
      },
      {
        "text": "deferred exam",
        "alias": "DEF",
        "meta": "@DEF",
        "userDefined": false
      }
    ],
    "isTemplate": false,
    "count": 0,
    "updated": 0
  },
  {
    "id": "07527e64-3bea-49ed-b1f9-f1cd00b4ddad",
    "data": [
      {
        "text": "When will I need to sit my ",
        "userDefined": false
      },
      {
        "text": "deferred exam",
        "alias": "DEF",
        "meta": "@DEF",
        "userDefined": false
      }
    ],
    "isTemplate": false,
    "count": 0,
    "updated": 0
  },
  {
    "id": "5038cb2f-fe25-4a86-bb01-1bb8de92f56e",
    "data": [
      {
        "text": "What if I haven\u0027t been given the time and date of my ",
        "userDefined": false
      },
      {
        "text": "supplementary exam",
        "alias": "supplementary",
        "meta": "@supplementary",
        "userDefined": false
      }
    ],
    "isTemplate": false,
    "count": 0,
    "updated": 0
  },
  {
    "id": "c39a2864-c04b-44da-abad-67401c2f7a27",
    "data": [
      {
        "text": "What if haven\u0027t been given the time and date of my ",
        "userDefined": false
      },
      {
        "text": "deferred exam",
        "alias": "DEF",
        "meta": "@DEF",
        "userDefined": false
      }
    ],
    "isTemplate": false,
    "count": 0,
    "updated": 0
  },
  {
    "id": "aaad3940-67a8-4ba0-b67c-16b46f61c4f9",
    "data": [
      {
        "text": "I haven\u0027t been given the time and date of my ",
        "userDefined": false
      },
      {
        "text": "supplementary exam",
        "alias": "supplementary",
        "meta": "@supplementary",
        "userDefined": false
      }
    ],
    "isTemplate": false,
    "count": 0,
    "updated": 0
  },
  {
    "id": "bcfd8b83-bc4a-4f22-97b8-71747459ace9",
    "data": [
      {
        "text": "I haven\u0027t been given the time and date of my ",
        "userDefined": false
      },
      {
        "text": "deferred exam",
        "alias": "DEF",
        "meta": "@DEF",
        "userDefined": false
      }
    ],
    "isTemplate": false,
    "count": 0,
    "updated": 0
  },
  {
    "id": "db912834-4815-49a8-ba9f-2d7effb9786f",
    "data": [
      {
        "text": "I would like to know when the ",
        "userDefined": false
      },
      {
        "text": "supplementary exams",
        "alias": "supplementary",
        "meta": "@supplementary",
        "userDefined": false
      },
      {
        "text": " are",
        "userDefined": false
      }
    ],
    "isTemplate": false,
    "count": 0,
    "updated": 0
  },
  {
    "id": "d676f3b3-21f1-443d-9ea3-56fe8dec0970",
    "data": [
      {
        "text": "I want to know when the ",
        "userDefined": false
      },
      {
        "text": "supplementary exams",
        "alias": "supplementary",
        "meta": "@supplementary",
        "userDefined": false
      },
      {
        "text": " are",
        "userDefined": false
      }
    ],
    "isTemplate": false,
    "count": 0,
    "updated": 0
  },
  {
    "id": "fc9d0143-7b67-4d95-8162-61c0076126da",
    "data": [
      {
        "text": "Can you tell me when the ",
        "userDefined": false
      },
      {
        "text": "supplementary exams",
        "alias": "supplementary",
        "meta": "@supplementary",
        "userDefined": false
      },
      {
        "text": " are",
        "userDefined": false
      }
    ],
    "isTemplate": false,
    "count": 0,
    "updated": 0
  },
  {
    "id": "e50d2367-c429-4d1f-8750-8c3512936177",
    "data": [
      {
        "text": "When are the ",
        "userDefined": false
      },
      {
        "text": "supplementary exams",
        "alias": "supplementary",
        "meta": "@supplementary",
        "userDefined": false
      }
    ],
    "isTemplate": false,
    "count": 0,
    "updated": 0
  },
  {
    "id": "ddb07666-302f-422a-aef5-bff7b0b6f00e",
    "data": [
      {
        "text": "Can you tell me when the ",
        "userDefined": false
      },
      {
        "text": "deferred exams",
        "alias": "DEF",
        "meta": "@DEF",
        "userDefined": false
      },
      {
        "text": " are",
        "userDefined": false
      }
    ],
    "isTemplate": false,
    "count": 0,
    "updated": 0
  },
  {
    "id": "c52d4a31-85c5-4d06-9607-33f0c06cd89d",
    "data": [
      {
        "text": "when are the ",
        "userDefined": false
      },
      {
        "text": "deferred exams",
        "alias": "DEF",
        "meta": "@DEF",
        "userDefined": true
      }
    ],
    "isTemplate": false,
    "count": 1,
    "updated": 0
  },
  {
    "id": "652905b4-438a-403e-a379-c50473d576b3",
    "data": [
      {
        "text": "I want to know when the ",
        "userDefined": false
      },
      {
        "text": "deferred exams",
        "alias": "DEF",
        "meta": "@DEF",
        "userDefined": false
      },
      {
        "text": " are",
        "userDefined": false
      }
    ],
    "isTemplate": false,
    "count": 0,
    "updated": 0
  },
  {
    "id": "736b5b0f-df8f-4903-82d5-331575b35907",
    "data": [
      {
        "text": "What\u0027s the time and date of my ",
        "userDefined": false
      },
      {
        "text": "deferred exam",
        "alias": "DEF",
        "meta": "@DEF",
        "userDefined": false
      }
    ],
    "isTemplate": false,
    "count": 0,
    "updated": 0
  },
  {
    "id": "50150dc7-ec4c-4973-9a95-52197cb08637",
    "data": [
      {
        "text": "Time and date of my ",
        "userDefined": false
      },
      {
        "text": "deferred exam",
        "alias": "DEF",
        "meta": "@DEF",
        "userDefined": false
      }
    ],
    "isTemplate": false,
    "count": 0,
    "updated": 0
  },
  {
    "id": "b4265580-6b7c-46a0-ac78-605aa218002b",
    "data": [
      {
        "text": "When will I sit my ",
        "userDefined": false
      },
      {
        "text": "deferred exam",
        "alias": "DEF",
        "meta": "@DEF",
        "userDefined": false
      }
    ],
    "isTemplate": false,
    "count": 0,
    "updated": 0
  },
  {
    "id": "f693c36c-549b-4ed0-a138-4836dd653e5d",
    "data": [
      {
        "text": "What day will I sit my ",
        "userDefined": false
      },
      {
        "text": "deferred exam",
        "alias": "DEF",
        "meta": "@DEF",
        "userDefined": false
      }
    ],
    "isTemplate": false,
    "count": 0,
    "updated": 0
  },
  {
    "id": "a21f4174-fa7b-49e0-9bd8-6c0067606347",
    "data": [
      {
        "text": "Which day do I sit my ",
        "userDefined": false
      },
      {
        "text": "deferred exam",
        "alias": "DEF",
        "meta": "@DEF",
        "userDefined": false
      }
    ],
    "isTemplate": false,
    "count": 1,
    "updated": 0
  },
  {
    "id": "d0f5d2d3-0cce-4fe8-9f26-c33aa9116b32",
    "data": [
      {
        "text": "I want to know when do I attend my ",
        "userDefined": false
      },
      {
        "text": "deferred exam",
        "alias": "DEF",
        "meta": "@DEF",
        "userDefined": false
      }
    ],
    "isTemplate": false,
    "count": 0,
    "updated": 0
  },
  {
    "id": "0550bd35-0dbf-42ff-96bd-49d8575f2830",
    "data": [
      {
        "text": "I want to know when to attend my ",
        "userDefined": false
      },
      {
        "text": "deferred exam",
        "alias": "DEF",
        "meta": "@DEF",
        "userDefined": false
      }
    ],
    "isTemplate": false,
    "count": 0,
    "updated": 0
  },
  {
    "id": "c3640b8e-f8a7-4508-88e9-5ea7f1bca800",
    "data": [
      {
        "text": "When am I to attend my ",
        "userDefined": false
      },
      {
        "text": "deferred exam",
        "alias": "DEF",
        "meta": "@DEF",
        "userDefined": false
      }
    ],
    "isTemplate": false,
    "count": 0,
    "updated": 0
  },
  {
    "id": "80b2b7e6-219a-4582-a65a-0325b0f516d1",
    "data": [
      {
        "text": "When do I need to attend my ",
        "userDefined": false
      },
      {
        "text": "deferred exam",
        "alias": "DEF",
        "meta": "@DEF",
        "userDefined": false
      }
    ],
    "isTemplate": false,
    "count": 0,
    "updated": 0
  },
  {
    "id": "0adb39d2-b4bc-472c-abea-e7aa0dec9a48",
    "data": [
      {
        "text": "what day do i sit my ",
        "userDefined": false
      },
      {
        "text": "deferred exam",
        "alias": "DEF",
        "meta": "@DEF",
        "userDefined": false
      }
    ],
    "isTemplate": false,
    "count": 1,
    "updated": 0
  },
  {
    "id": "38065f0b-0a1f-4e79-92da-39599955177a",
    "data": [
      {
        "text": "How do I know when is my ",
        "userDefined": false
      },
      {
        "text": "deferred exam",
        "alias": "DEF",
        "meta": "@DEF",
        "userDefined": false
      }
    ],
    "isTemplate": false,
    "count": 0,
    "updated": 0
  },
  {
    "id": "c19ccd57-8dc9-419a-8760-bc7e14ddbbaf",
    "data": [
      {
        "text": "When to attend my ",
        "userDefined": false
      },
      {
        "text": "deferred exam",
        "alias": "DEF",
        "meta": "@DEF",
        "userDefined": false
      }
    ],
    "isTemplate": false,
    "count": 0,
    "updated": 0
  },
  {
    "id": "3a63b18c-c4db-4dd6-9010-23bca7cd1fa2",
    "data": [
      {
        "text": "How do I know when to attend my ",
        "userDefined": false
      },
      {
        "text": "deferred exam",
        "alias": "DEF",
        "meta": "@DEF",
        "userDefined": false
      }
    ],
    "isTemplate": false,
    "count": 0,
    "updated": 0
  },
  {
    "id": "7f8c1af2-644b-47f0-bb5d-31a9af935224",
    "data": [
      {
        "text": "When do I attend my ",
        "userDefined": false
      },
      {
        "text": "deferred exam",
        "alias": "DEF",
        "meta": "@DEF",
        "userDefined": false
      }
    ],
    "isTemplate": false,
    "count": 1,
    "updated": 0
  },
  {
    "id": "7f84113b-a72a-4e71-b630-ca492cf6c9da",
    "data": [
      {
        "text": "Date of my ",
        "userDefined": false
      },
      {
        "text": "deferred exam",
        "alias": "DEF",
        "meta": "@DEF",
        "userDefined": false
      }
    ],
    "isTemplate": false,
    "count": 0,
    "updated": 0
  },
  {
    "id": "d9133b1d-3310-4ec9-9013-9672893bb442",
    "data": [
      {
        "text": "Time of my ",
        "userDefined": false
      },
      {
        "text": "deferred exam",
        "alias": "DEF",
        "meta": "@DEF",
        "userDefined": false
      }
    ],
    "isTemplate": false,
    "count": 0,
    "updated": 0
  },
  {
    "id": "ad349ab2-5d3d-4ebe-b78a-7637539eb4f4",
    "data": [
      {
        "text": "how can i view when my ",
        "userDefined": false
      },
      {
        "text": "deferred",
        "alias": "DEF",
        "meta": "@DEF",
        "userDefined": true
      },
      {
        "text": " exam is?",
        "userDefined": false
      }
    ],
    "isTemplate": false,
    "count": 0,
    "updated": 0
  },
  {
    "id": "5b95f0ca-4362-43d5-91a1-d2c872caf6e9",
    "data": [
      {
        "text": "when does monash release the exam timetable for ",
        "userDefined": false
      },
      {
        "text": "supplementary",
        "alias": "supplementary",
        "meta": "@supplementary",
        "userDefined": false
      },
      {
        "text": " exams",
        "userDefined": false
      }
    ],
    "isTemplate": false,
    "count": 0,
    "updated": 0
  },
  {
    "id": "66434d06-b3c4-4e13-8277-ce1ca8da3a03",
    "data": [
      {
        "text": "when will our ",
        "userDefined": false
      },
      {
        "text": "supplementary",
        "alias": "supplementary",
        "meta": "@supplementary",
        "userDefined": false
      },
      {
        "text": " exam timetable be released",
        "userDefined": false
      }
    ],
    "isTemplate": false,
    "count": 0,
    "updated": 0
  },
  {
    "id": "9d76f2b0-a64b-4cc4-8da4-5fb58979382f",
    "data": [
      {
        "text": "when does the ",
        "userDefined": false
      },
      {
        "text": "supplementary",
        "alias": "supplementary",
        "meta": "@supplementary",
        "userDefined": false
      },
      {
        "text": " exam timetable get released",
        "userDefined": false
      }
    ],
    "isTemplate": false,
    "count": 0,
    "updated": 0
  },
  {
    "id": "8bf460cd-fe79-4743-b4ec-507ba66bf4f6",
    "data": [
      {
        "text": "What is the release date for our ",
        "userDefined": false
      },
      {
        "text": "supplementary",
        "alias": "supplementary",
        "meta": "@supplementary",
        "userDefined": false
      },
      {
        "text": " exam timetable",
        "userDefined": false
      }
    ],
    "isTemplate": false,
    "count": 0,
    "updated": 0
  },
  {
    "id": "9a041df6-e82c-434f-b467-cdb015d40936",
    "data": [
      {
        "text": "When do ",
        "userDefined": false
      },
      {
        "text": "we",
        "meta": "@sys.ignore",
        "userDefined": false
      },
      {
        "text": " get our ",
        "userDefined": false
      },
      {
        "text": "supplementary",
        "alias": "supplementary",
        "meta": "@supplementary",
        "userDefined": false
      },
      {
        "text": " exam timetable",
        "userDefined": false
      }
    ],
    "isTemplate": false,
    "count": 0,
    "updated": 0
  },
  {
    "id": "31d39135-6f15-4ad4-98d1-54968f3be1c0",
    "data": [
      {
        "text": "What day do I do my ",
        "userDefined": false
      },
      {
        "text": "deferred exam",
        "alias": "DEF",
        "meta": "@DEF",
        "userDefined": false
      }
    ],
    "isTemplate": false,
    "count": 0,
    "updated": 0
  },
  {
    "id": "a0293937-f79e-4849-b8eb-3e5cc8f74e1f",
    "data": [
      {
        "text": "when are the ",
        "userDefined": false
      },
      {
        "text": "deferred",
        "alias": "DEF",
        "meta": "@DEF",
        "userDefined": true
      },
      {
        "text": " and ",
        "userDefined": false
      },
      {
        "text": "supplementary",
        "alias": "supplementary",
        "meta": "@supplementary",
        "userDefined": false
      },
      {
        "text": " exams",
        "userDefined": false
      }
    ],
    "isTemplate": false,
    "count": 0,
    "updated": 0
  },
  {
    "id": "4cb905db-fe7f-497a-8e73-e31822f36c0a",
    "data": [
      {
        "text": "when do ",
        "userDefined": false
      },
      {
        "text": "we",
        "meta": "@sys.ignore",
        "userDefined": false
      },
      {
        "text": " find out about ",
        "userDefined": false
      },
      {
        "text": "deferred exams",
        "alias": "DEF",
        "meta": "@DEF",
        "userDefined": false
      }
    ],
    "isTemplate": false,
    "count": 0,
    "updated": 0
  },
  {
    "id": "e040d899-c0d9-4f87-9662-5a37b8e2b052",
    "data": [
      {
        "text": "when do we get our ",
        "userDefined": false
      },
      {
        "text": "deferred exam",
        "alias": "DEF",
        "meta": "@DEF",
        "userDefined": false
      },
      {
        "text": " timetable",
        "userDefined": false
      }
    ],
    "isTemplate": false,
    "count": 0,
    "updated": 0
  },
  {
    "id": "ddc0857b-5df0-4266-8552-1ad0afdfc5aa",
    "data": [
      {
        "text": "when do we find out when our ",
        "userDefined": false
      },
      {
        "text": "deferred exams",
        "alias": "DEF",
        "meta": "@DEF",
        "userDefined": false
      },
      {
        "text": " are",
        "userDefined": false
      }
    ],
    "isTemplate": false,
    "count": 0,
    "updated": 0
  },
  {
    "id": "edbb984e-5d6a-4876-a8dd-e08c4dc6d155",
    "data": [
      {
        "text": "when do we find out about when ",
        "userDefined": false
      },
      {
        "text": "deferred exams",
        "alias": "DEF",
        "meta": "@DEF",
        "userDefined": false
      },
      {
        "text": " are",
        "userDefined": false
      }
    ],
    "isTemplate": false,
    "count": 0,
    "updated": 0
  },
  {
    "id": "6eb18a2e-134f-4151-a7c8-0a0ee958e1fe",
    "data": [
      {
        "text": "When do ",
        "userDefined": false
      },
      {
        "text": "we",
        "meta": "@sys.ignore",
        "userDefined": false
      },
      {
        "text": " get to know what time our ",
        "userDefined": false
      },
      {
        "text": "deferred exam",
        "alias": "DEF",
        "meta": "@DEF",
        "userDefined": false
      },
      {
        "text": " will be",
        "userDefined": false
      }
    ],
    "isTemplate": false,
    "count": 0,
    "updated": 0
  },
  {
    "id": "46492e84-540b-455d-b4e7-2a787f2ea6bc",
    "data": [
      {
        "text": "when is the ",
        "userDefined": false
      },
      {
        "text": "supplementary",
        "alias": "supplementary",
        "meta": "@supplementary",
        "userDefined": false
      },
      {
        "text": " exam timetable released",
        "userDefined": false
      }
    ],
    "isTemplate": false,
    "count": 0,
    "updated": 0
  },
  {
    "id": "80d983b5-91a9-4376-99fc-f8fbe3983376",
    "data": [
      {
        "text": "I\u0027d like to see my ",
        "userDefined": false
      },
      {
        "text": "supplementary",
        "alias": "supplementary",
        "meta": "@supplementary",
        "userDefined": false
      },
      {
        "text": " exam timetable",
        "userDefined": false
      }
    ],
    "isTemplate": false,
    "count": 0,
    "updated": 0
  },
  {
    "id": "1b5715f0-737e-47c2-ad7d-c8f1e831ea35",
    "data": [
      {
        "text": "I want to see my ",
        "userDefined": false
      },
      {
        "text": "supplementary",
        "alias": "supplementary",
        "meta": "@supplementary",
        "userDefined": false
      },
      {
        "text": " exam timetable",
        "userDefined": false
      }
    ],
    "isTemplate": false,
    "count": 0,
    "updated": 0
  },
  {
    "id": "7b1d2ab9-9193-4753-a285-b345aa1e5114",
    "data": [
      {
        "text": "when can i see my ",
        "userDefined": false
      },
      {
        "text": "supplementary",
        "alias": "supplementary",
        "meta": "@supplementary",
        "userDefined": false
      },
      {
        "text": " exam timetable",
        "userDefined": false
      }
    ],
    "isTemplate": false,
    "count": 0,
    "updated": 0
  },
  {
    "id": "0bace738-9e43-437f-acd4-2257b139d260",
    "data": [
      {
        "text": "When do i get my ",
        "userDefined": false
      },
      {
        "text": "supplementary",
        "alias": "supplementary",
        "meta": "@supplementary",
        "userDefined": false
      },
      {
        "text": " exam timetable",
        "userDefined": false
      }
    ],
    "isTemplate": false,
    "count": 0,
    "updated": 0
  },
  {
    "id": "4c85fc8e-3e7f-4415-ba6d-6e4afd2a3631",
    "data": [
      {
        "text": "May I know dates of the ",
        "userDefined": false
      },
      {
        "text": "deferred exams",
        "alias": "DEF",
        "meta": "@DEF",
        "userDefined": false
      }
    ],
    "isTemplate": false,
    "count": 0,
    "updated": 0
  },
  {
    "id": "e1c3351b-55dc-4e77-a61b-81c4da8c3421",
    "data": [
      {
        "text": "When is my ",
        "userDefined": false
      },
      {
        "text": "supplementary",
        "alias": "supplementary",
        "meta": "@supplementary",
        "userDefined": false
      },
      {
        "text": " exam going to be held",
        "userDefined": false
      }
    ],
    "isTemplate": false,
    "count": 0,
    "updated": 0
  },
  {
    "id": "50ecb9bd-a00c-48f2-95f1-a3577a353668",
    "data": [
      {
        "text": "I want to know when ",
        "userDefined": false
      },
      {
        "text": "supplementary",
        "alias": "supplementary",
        "meta": "@supplementary",
        "userDefined": false
      },
      {
        "text": " exams will be held",
        "userDefined": false
      }
    ],
    "isTemplate": false,
    "count": 0,
    "updated": 0
  },
  {
    "id": "227508a4-fafd-4079-b511-034cb47f3478",
    "data": [
      {
        "text": "Can you tell me when ",
        "userDefined": false
      },
      {
        "text": "supplementary",
        "alias": "supplementary",
        "meta": "@supplementary",
        "userDefined": false
      },
      {
        "text": " exams will be held",
        "userDefined": false
      }
    ],
    "isTemplate": false,
    "count": 0,
    "updated": 0
  },
  {
    "id": "11486b83-4f08-41f5-8062-00f8da7a9f83",
    "data": [
      {
        "text": "When will ",
        "userDefined": false
      },
      {
        "text": "supplementary",
        "alias": "supplementary",
        "meta": "@supplementary",
        "userDefined": false
      },
      {
        "text": " exams be held",
        "userDefined": false
      }
    ],
    "isTemplate": false,
    "count": 0,
    "updated": 0
  },
  {
    "id": "47946e9e-eb44-454c-9615-64258db197a9",
    "data": [
      {
        "text": "Can you tell me when ",
        "userDefined": false
      },
      {
        "text": "supplementary",
        "alias": "supplementary",
        "meta": "@supplementary",
        "userDefined": false
      },
      {
        "text": " exam period is",
        "userDefined": false
      }
    ],
    "isTemplate": false,
    "count": 0,
    "updated": 0
  },
  {
    "id": "172abb06-3afa-4dd7-95dd-67aba5dec7cc",
    "data": [
      {
        "text": "Supplementary",
        "alias": "supplementary",
        "meta": "@supplementary",
        "userDefined": false
      },
      {
        "text": " exam period dates",
        "userDefined": false
      }
    ],
    "isTemplate": false,
    "count": 0,
    "updated": 0
  },
  {
    "id": "c48cf24e-c0b7-45ba-a2b1-f6ae7858622e",
    "data": [
      {
        "text": "Supplementary",
        "alias": "supplementary",
        "meta": "@supplementary",
        "userDefined": false
      },
      {
        "text": " exam period",
        "userDefined": false
      }
    ],
    "isTemplate": false,
    "count": 0,
    "updated": 0
  },
  {
    "id": "a9e0bdaa-8f20-4b30-9167-5635ae5d5092",
    "data": [
      {
        "text": "What is the ",
        "userDefined": false
      },
      {
        "text": "supplementary",
        "alias": "supplementary",
        "meta": "@supplementary",
        "userDefined": false
      },
      {
        "text": " exam period",
        "userDefined": false
      }
    ],
    "isTemplate": false,
    "count": 0,
    "updated": 0
  },
  {
    "id": "a0c09fec-ab4d-4fe3-ae87-40d5bf5cb2ed",
    "data": [
      {
        "text": "What is my ",
        "userDefined": false
      },
      {
        "text": "supplementary",
        "alias": "supplementary",
        "meta": "@supplementary",
        "userDefined": false
      },
      {
        "text": " exam date",
        "userDefined": false
      }
    ],
    "isTemplate": false,
    "count": 0,
    "updated": 0
  },
  {
    "id": "c6d91839-3099-408d-b399-65479e7b36ce",
    "data": [
      {
        "text": "Can you tell me my ",
        "userDefined": false
      },
      {
        "text": "supplementary",
        "alias": "supplementary",
        "meta": "@supplementary",
        "userDefined": false
      },
      {
        "text": " exam date",
        "userDefined": false
      }
    ],
    "isTemplate": false,
    "count": 0,
    "updated": 0
  },
  {
    "id": "de69fcac-3abf-4fee-bba7-9ac6bb302609",
    "data": [
      {
        "text": "Can you tell me the date of my ",
        "userDefined": false
      },
      {
        "text": "supplementary",
        "alias": "supplementary",
        "meta": "@supplementary",
        "userDefined": false
      },
      {
        "text": " exam",
        "userDefined": false
      }
    ],
    "isTemplate": false,
    "count": 0,
    "updated": 0
  },
  {
    "id": "b16a2252-13b9-4efd-945f-9cf82f564e46",
    "data": [
      {
        "text": "I want to know the date of my ",
        "userDefined": false
      },
      {
        "text": "supplementary",
        "alias": "supplementary",
        "meta": "@supplementary",
        "userDefined": false
      },
      {
        "text": " exam",
        "userDefined": false
      }
    ],
    "isTemplate": false,
    "count": 0,
    "updated": 0
  },
  {
    "id": "d84f3a94-8df7-494b-9364-8db30adb5601",
    "data": [
      {
        "text": "What is the date of ",
        "userDefined": false
      },
      {
        "text": "supplementary",
        "alias": "supplementary",
        "meta": "@supplementary",
        "userDefined": false
      },
      {
        "text": " exam",
        "userDefined": false
      }
    ],
    "isTemplate": false,
    "count": 0,
    "updated": 0
  },
  {
    "id": "1e93f462-b2e5-46c1-b36b-624b8f38ff0d",
    "data": [
      {
        "text": "Exam date of ",
        "userDefined": false
      },
      {
        "text": "supplementary",
        "alias": "supplementary",
        "meta": "@supplementary",
        "userDefined": false
      },
      {
        "text": " exam",
        "userDefined": false
      }
    ],
    "isTemplate": false,
    "count": 0,
    "updated": 0
  },
  {
    "id": "574db269-acaf-480f-bf48-4d26b96101fa",
    "data": [
      {
        "text": "supplementary",
        "alias": "supplementary",
        "meta": "@supplementary",
        "userDefined": false
      },
      {
        "text": " exam date",
        "userDefined": false
      }
    ],
    "isTemplate": false,
    "count": 0,
    "updated": 0
  },
  {
    "id": "a6de541d-fbd7-49cc-9c3d-3f8df1009dfd",
    "data": [
      {
        "text": "When can I find the time of my ",
        "userDefined": false
      },
      {
        "text": "deferred exam",
        "alias": "DEF",
        "meta": "@DEF",
        "userDefined": false
      }
    ],
    "isTemplate": false,
    "count": 0,
    "updated": 0
  },
  {
    "id": "f2302967-8403-40da-9884-97b8ebc6f053",
    "data": [
      {
        "text": "I want to know the time of my ",
        "userDefined": false
      },
      {
        "text": "deferred exam",
        "alias": "DEF",
        "meta": "@DEF",
        "userDefined": false
      }
    ],
    "isTemplate": false,
    "count": 0,
    "updated": 0
  },
  {
    "id": "018b516e-0e67-45ed-b86f-ed7859179c6a",
    "data": [
      {
        "text": "Will I know the time of my ",
        "userDefined": false
      },
      {
        "text": "deferred exam",
        "alias": "DEF",
        "meta": "@DEF",
        "userDefined": false
      }
    ],
    "isTemplate": false,
    "count": 0,
    "updated": 0
  },
  {
    "id": "ef5d94b8-bc29-4fbf-abc0-329eaab999d6",
    "data": [
      {
        "text": "How do ",
        "userDefined": false
      },
      {
        "text": "we",
        "meta": "@sys.ignore",
        "userDefined": false
      },
      {
        "text": " know the time of our ",
        "userDefined": false
      },
      {
        "text": "deferred exam",
        "alias": "DEF",
        "meta": "@DEF",
        "userDefined": false
      }
    ],
    "isTemplate": false,
    "count": 0,
    "updated": 0
  },
  {
    "id": "8ea97ca0-d923-4f03-ae73-7ddf4fd50459",
    "data": [
      {
        "text": "I want to know when ",
        "userDefined": false
      },
      {
        "text": "deferred exam",
        "alias": "DEF",
        "meta": "@DEF",
        "userDefined": false
      },
      {
        "text": " will take place",
        "userDefined": false
      }
    ],
    "isTemplate": false,
    "count": 0,
    "updated": 0
  },
  {
    "id": "41f9c135-4fba-40af-8ba5-39750aff3291",
    "data": [
      {
        "text": "When will ",
        "userDefined": false
      },
      {
        "text": "deferred exams",
        "alias": "DEF",
        "meta": "@DEF",
        "userDefined": false
      },
      {
        "text": " take place",
        "userDefined": false
      }
    ],
    "isTemplate": false,
    "count": 0,
    "updated": 0
  },
  {
    "id": "a23e36fe-8580-4f4d-984d-63957aec97e1",
    "data": [
      {
        "text": "When do ",
        "userDefined": false
      },
      {
        "text": "deferred exams",
        "alias": "DEF",
        "meta": "@DEF",
        "userDefined": false
      },
      {
        "text": " take place",
        "userDefined": false
      }
    ],
    "isTemplate": false,
    "count": 0,
    "updated": 0
  },
  {
    "id": "bc336d01-4ce3-468a-82b4-d6f176a2004a",
    "data": [
      {
        "text": "When will ",
        "userDefined": false
      },
      {
        "text": "deferred exams",
        "alias": "DEF",
        "meta": "@DEF",
        "userDefined": false
      },
      {
        "text": " be held",
        "userDefined": false
      }
    ],
    "isTemplate": false,
    "count": 0,
    "updated": 0
  },
  {
    "id": "c0611af5-d58d-4a11-9d31-e5607767d116",
    "data": [
      {
        "text": "I want to know when the semester ",
        "userDefined": false
      },
      {
        "text": "one",
        "alias": "number",
        "meta": "@sys.number",
        "userDefined": false
      },
      {
        "text": " ",
        "userDefined": false
      },
      {
        "text": "deferred exams",
        "alias": "DEF",
        "meta": "@DEF",
        "userDefined": false
      },
      {
        "text": " are",
        "userDefined": false
      }
    ],
    "isTemplate": false,
    "count": 0,
    "updated": 0
  },
  {
    "id": "e4a57926-ea78-4016-9378-0e390db23cb7",
    "data": [
      {
        "text": "When are semester ",
        "userDefined": false
      },
      {
        "text": "one",
        "alias": "number",
        "meta": "@sys.number",
        "userDefined": false
      },
      {
        "text": " ",
        "userDefined": false
      },
      {
        "text": "deferred exam",
        "alias": "DEF",
        "meta": "@DEF",
        "userDefined": false
      }
    ],
    "isTemplate": false,
    "count": 0,
    "updated": 0
  },
  {
    "id": "ecb9a270-7c32-47ad-8cdb-65b306dad8b2",
    "data": [
      {
        "text": "Can you tell me when ",
        "userDefined": false
      },
      {
        "text": "deferred exams",
        "alias": "DEF",
        "meta": "@DEF",
        "userDefined": false
      },
      {
        "text": " are",
        "userDefined": false
      }
    ],
    "isTemplate": false,
    "count": 0,
    "updated": 0
  },
  {
    "id": "efce032c-f258-4334-898d-e444d7623cd3",
    "data": [
      {
        "text": "When are ",
        "userDefined": false
      },
      {
        "text": "deferred exam",
        "alias": "DEF",
        "meta": "@DEF",
        "userDefined": false
      }
    ],
    "isTemplate": false,
    "count": 0,
    "updated": 0
  },
  {
    "id": "c779fa12-1019-4119-ab1e-13bd02c3ff75",
    "data": [
      {
        "text": "exam dates for semester ",
        "userDefined": false
      },
      {
        "text": "one",
        "alias": "number",
        "meta": "@sys.number",
        "userDefined": false
      },
      {
        "text": " ",
        "userDefined": false
      },
      {
        "text": "deferred exams",
        "alias": "DEF",
        "meta": "@DEF",
        "userDefined": false
      }
    ],
    "isTemplate": false,
    "count": 0,
    "updated": 0
  },
  {
    "id": "e68de63d-376c-48e6-a6e4-546d11732492",
    "data": [
      {
        "text": "When will I find out when my supplementary exam is",
        "userDefined": false
      }
    ],
    "isTemplate": false,
    "count": 0,
    "updated": 0
  },
  {
    "id": "19c2ae42-a6f0-4647-a4f3-08faffcf8d32",
    "data": [
      {
        "text": "I\u0027m not sure the timetable for deferred exam",
        "userDefined": false
      }
    ],
    "isTemplate": false,
    "count": 0,
    "updated": 0
  },
  {
    "id": "4aa24816-1c0b-48db-bfbc-2a07ad069c1d",
    "data": [
      {
        "text": "timetable for deferred exams",
        "userDefined": false
      }
    ],
    "isTemplate": false,
    "count": 0,
    "updated": 0
  },
  {
    "id": "53d5ec59-d695-489d-9405-d02af5f5e794",
    "data": [
      {
        "text": "deferred exam timetable",
        "userDefined": false
      }
    ],
    "isTemplate": false,
    "count": 0,
    "updated": 0
  },
  {
    "id": "8e1f900f-1051-4344-bfa3-e01577c90fcf",
    "data": [
      {
        "text": "When will the timetable be released for deferred exams",
        "userDefined": false
      }
    ],
    "isTemplate": false,
    "count": 0,
    "updated": 0
  },
  {
    "id": "2608d439-fa37-451a-8738-bdd944e1f661",
    "data": [
      {
        "text": "When will i find out when my deferred exam is",
        "userDefined": false
      }
    ],
    "isTemplate": false,
    "count": 0,
    "updated": 0
  },
  {
    "id": "2de4f175-22af-4d3b-9c39-400ba49d1535",
    "data": [
      {
        "text": "When is the ",
        "userDefined": false
      },
      {
        "text": "deferred",
        "alias": "DEF",
        "meta": "@DEF",
        "userDefined": true
      },
      {
        "text": " and ",
        "userDefined": false
      },
      {
        "text": "supplementary",
        "alias": "supplementary",
        "meta": "@supplementary",
        "userDefined": true
      },
      {
        "text": " exam timetable published",
        "userDefined": false
      }
    ],
    "isTemplate": false,
    "count": 0,
    "updated": 0
  },
  {
    "id": "9c77be4e-b6b6-4205-a203-7851b7b0383c",
    "data": [
      {
        "text": "When is the ",
        "userDefined": false
      },
      {
        "text": "deferred exam",
        "alias": "DEF",
        "meta": "@DEF",
        "userDefined": true
      },
      {
        "text": " timetable released",
        "userDefined": false
      }
    ],
    "isTemplate": false,
    "count": 0,
    "updated": 0
  },
  {
    "id": "8197230b-9ef1-4696-8039-2fe32c811aa5",
    "data": [
      {
        "text": "When does the deferred exam timetable come out",
        "userDefined": false
      }
    ],
    "isTemplate": false,
    "count": 0,
    "updated": 0
  },
  {
    "id": "eea0a029-4be1-4762-8238-f8d3fb4310ec",
    "data": [
      {
        "text": "date for deferred exam",
        "userDefined": false
      }
    ],
    "isTemplate": false,
    "count": 0,
    "updated": 0
  },
  {
    "id": "99bd488f-44c5-45bc-ba9c-27914ed142e5",
    "data": [
      {
        "text": "When will I get my deferred exam timetable",
        "userDefined": false
      }
    ],
    "isTemplate": false,
    "count": 1,
    "updated": 0
  },
  {
    "id": "f36e27c7-efbb-42f0-834e-47a6997b513b",
    "data": [
      {
        "text": "When is my ",
        "userDefined": false
      },
      {
        "text": "deferred exam",
        "alias": "DEF",
        "meta": "@DEF",
        "userDefined": true
      }
    ],
    "isTemplate": false,
    "count": 0,
    "updated": 0
  },
  {
    "id": "bdc4616e-b82f-4d77-b328-20ef73fa15e9",
    "data": [
      {
        "text": "When are supplementary exams",
        "userDefined": false
      }
    ],
    "isTemplate": false,
    "count": 0,
    "updated": 0
  },
  {
    "id": "a0d3f12b-2034-4c13-a7be-80868fab399d",
    "data": [
      {
        "text": "When are deferred exams held",
        "userDefined": false
      }
    ],
    "isTemplate": false,
    "count": 0,
    "updated": 0
  },
  {
    "id": "3a59f594-4872-4f0b-b64c-0e36e68b19c7",
    "data": [
      {
        "text": "When is the ",
        "userDefined": false
      },
      {
        "text": "deferred exam",
        "alias": "DEF",
        "meta": "@DEF",
        "userDefined": true
      },
      {
        "text": " period",
        "userDefined": false
      }
    ],
    "isTemplate": false,
    "count": 0,
    "updated": 0
  }
]