{
  "id": "0a9cdb35-f365-4b60-b30b-fbbd605cc82d",
  "name": "EXA 365 timetable clash",
  "auto": true,
  "contexts": [],
  "responses": [
    {
      "resetContexts": false,
      "affectedContexts": [],
      "parameters": [
        {
          "id": "41fb4208-7bc2-457d-9587-178e3a5c66c1",
          "required": false,
          "dataType": "@sys.number",
          "name": "number",
          "value": "$number",
          "promptMessages": [],
          "noMatchPromptMessages": [],
          "noInputPromptMessages": [],
          "outputDialogContexts": [],
          "isList": false
        },
        {
          "id": "52746dbc-948b-4995-8435-e7891352dfa5",
          "required": false,
          "dataType": "@Multiple",
          "name": "Multiple",
          "value": "$Multiple",
          "promptMessages": [],
          "noMatchPromptMessages": [],
          "noInputPromptMessages": [],
          "outputDialogContexts": [],
          "isList": false
        },
        {
          "id": "c654f4e8-7f79-4021-a49a-82bb742411de",
          "required": false,
          "dataType": "@postpone",
          "name": "postpone",
          "value": "$postpone",
          "promptMessages": [],
          "noMatchPromptMessages": [],
          "noInputPromptMessages": [],
          "outputDialogContexts": [],
          "isList": false
        }
      ],
      "messages": [
        {
          "type": 0,
          "lang": "en",
          "condition": "",
          "speech": "\u003cp\u003eIf you have an \u003ca href\u003d\"https://www.monash.edu/exams/dates-timetables/review-exam-timetable#examclash\" target\u003d\"_blank\" rel\u003d\"noopener noreferrer\"\u003eexam clash\u003c/a\u003e, it\u0027s okay. We\u0027ll move one of your exams to a different time on the same day. You don\u0027t need to do anything.\u003c/p\u003e\n\n\u003cp\u003eWe\u0027ll email you two weeks before the exam period outlining the exact arrangements for that day. \n\nYou can\u0027t have \u003cstrong\u003emore than\u003c/strong\u003e two exams in one day. If your exam timetable shows three exams in a single day, please contact us:\u003c/p\u003e"
        },
        {
          "type": 4,
          "lang": "en",
          "condition": "",
          "payload": {
            "quickReplies": [
              {
                "text": "Contact us"
              }
            ]
          }
        }
      ],
      "defaultResponsePlatforms": {},
      "speech": []
    }
  ],
  "priority": 500000,
  "webhookUsed": false,
  "webhookForSlotFilling": false,
  "fallbackIntent": false,
  "events": [],
  "conditionalResponses": [],
  "condition": "",
  "conditionalFollowupEvents": []
}