{
  "id": "1ad35ff8-a4d2-4eda-9b5f-208e23356176",
  "name": "TIM 365 issues cant login",
  "auto": true,
  "contexts": [],
  "responses": [
    {
      "resetContexts": false,
      "affectedContexts": [],
      "parameters": [
        {
          "id": "3801b7ac-1d36-4c1d-8c4e-ab372cbee8dd",
          "required": false,
          "dataType": "@Allocate",
          "name": "Allocate",
          "value": "$Allocate",
          "promptMessages": [],
          "noMatchPromptMessages": [],
          "noInputPromptMessages": [],
          "outputDialogContexts": [],
          "isList": false
        }
      ],
      "messages": [
        {
          "type": 0,
          "lang": "en",
          "condition": "",
          "speech": "\u003cp\u003eThere are a number of reasons why you might not be able to log into \u003ca href\u003d\"https://www.monash.edu/timetables/login\" target\u003d\"_blank\" rel\u003d\"noopener noreferrer\"\u003eAllocate+\u003c/a\u003e. For details, see our FAQ: \u003ca href\u003d\"https://www.monash.edu/timetables?_hs-q\u003dFAQ-2825\" target\u003d\"_blank\" rel\u003d\"noopener noreferrer\"\u003eWhy can\u0027t I log in to Allocate+?\u003c/a\u003e\u003c/p\u003e\n\n\u003cp\u003eIf you need help with your student account, including issues with multi-factor authentication (MFA), contact the \u003ca href\u003d\"https://www.monash.edu/esolutions/contact\" target\u003d\"_blank\" rel\u003d\"noopener noreferrer\"\u003eService Desk\u003c/a\u003e.\u003c/p\u003e"
        }
      ],
      "defaultResponsePlatforms": {},
      "speech": []
    }
  ],
  "priority": 500000,
  "webhookUsed": false,
  "webhookForSlotFilling": false,
  "fallbackIntent": false,
  "events": [],
  "conditionalResponses": [],
  "condition": "",
  "conditionalFollowupEvents": []
}