{
  "id": "dd493bed-446b-4314-86be-d193c5249370",
  "name": "TIM 365 general specific units",
  "auto": true,
  "contexts": [],
  "responses": [
    {
      "resetContexts": false,
      "affectedContexts": [],
      "parameters": [
        {
          "id": "c0dd9950-e76b-435b-82a1-15e270eb3130",
          "required": false,
          "dataType": "@sys.number",
          "name": "number",
          "value": "$number",
          "promptMessages": [],
          "noMatchPromptMessages": [],
          "noInputPromptMessages": [],
          "outputDialogContexts": [],
          "isList": false
        },
        {
          "id": "cc92bfb9-a408-4f96-af59-ba5506eae77c",
          "required": false,
          "dataType": "@Activity",
          "name": "Activity",
          "value": "$Activity",
          "promptMessages": [],
          "noMatchPromptMessages": [],
          "noInputPromptMessages": [],
          "outputDialogContexts": [],
          "isList": false
        },
        {
          "id": "ba502960-c1d4-4ddf-98a7-a9da4c004d6b",
          "required": false,
          "dataType": "@sys.date",
          "name": "date",
          "value": "$date",
          "promptMessages": [],
          "noMatchPromptMessages": [],
          "noInputPromptMessages": [],
          "outputDialogContexts": [],
          "isList": false
        },
        {
          "id": "d9a48697-3a34-40d0-9584-e24859fe82c9",
          "required": false,
          "dataType": "@Subject",
          "name": "Subject",
          "value": "$Subject",
          "promptMessages": [],
          "noMatchPromptMessages": [],
          "noInputPromptMessages": [],
          "outputDialogContexts": [],
          "isList": false
        }
      ],
      "messages": [
        {
          "type": 0,
          "lang": "en",
          "condition": "",
          "speech": "\u003cp\u003eI don\u0027t know the timetable for specific units, but the activities for each unit are listed in the \u003cstrong\u003eEnrolment\u003c/strong\u003e pane within \u003ca href\u003d\"https://www.monash.edu/timetables/login\" target\u003d\"_blank\" rel\u003d\"noopener noreferrer\"\u003eAllocate+\u003c/a\u003e. You can also search for units you\u0027re not enrolled in.\u003c/p\u003e\n\n\u003cp\u003eIf an activity such as a lecture is missing, your faculty may not have released activity times yet.\u003c/p\u003e\n\n\u003cp\u003eYou can use the \u003ca href\u003d\"https://www.monash.edu/timetables/class\" target\u003d\"_blank\" rel\u003d\"noopener noreferrer\"\u003eclass timetable\u003c/a\u003e to check units taught later in the year, such as semester two units.\u003c/p\u003e"
        }
      ],
      "defaultResponsePlatforms": {},
      "speech": []
    }
  ],
  "priority": 500000,
  "webhookUsed": false,
  "webhookForSlotFilling": false,
  "fallbackIntent": false,
  "events": [],
  "conditionalResponses": [],
  "condition": "",
  "conditionalFollowupEvents": []
}