[
  {
    "id": "9b08b100-50d3-4b6d-b088-e37df6b69121",
    "data": [
      {
        "text": "How do I know who my ",
        "userDefined": false
      },
      {
        "text": "professor",
        "alias": "teacher",
        "meta": "@teacher",
        "userDefined": false
      },
      {
        "text": " will be",
        "userDefined": false
      }
    ],
    "isTemplate": false,
    "count": 0,
    "updated": 0
  },
  {
    "id": "4277e994-3ef5-403b-acb4-bc13fddc3651",
    "data": [
      {
        "text": "Class",
        "alias": "Activity",
        "meta": "@Activity",
        "userDefined": false
      },
      {
        "text": " ",
        "userDefined": false
      },
      {
        "text": "professor",
        "alias": "teacher",
        "meta": "@teacher",
        "userDefined": false
      }
    ],
    "isTemplate": false,
    "count": 0,
    "updated": 0
  },
  {
    "id": "ecec7fb0-1832-47e2-a030-cb14bc3a3422",
    "data": [
      {
        "text": "I want to know who will be teaching my ",
        "userDefined": false
      },
      {
        "text": "tutorial",
        "alias": "Activity",
        "meta": "@Activity",
        "userDefined": false
      }
    ],
    "isTemplate": false,
    "count": 0,
    "updated": 0
  },
  {
    "id": "cc383d38-af83-43fa-b306-07f3ff156769",
    "data": [
      {
        "text": "Can you tell me who will be teaching my ",
        "userDefined": false
      },
      {
        "text": "tutorial",
        "alias": "Activity",
        "meta": "@Activity",
        "userDefined": false
      }
    ],
    "isTemplate": false,
    "count": 0,
    "updated": 0
  },
  {
    "id": "1e774473-36ff-410f-9c22-5f1bf7525597",
    "data": [
      {
        "text": "I want to know who is teaching the ",
        "userDefined": false
      },
      {
        "text": "workshop",
        "alias": "Activity",
        "meta": "@Activity",
        "userDefined": false
      }
    ],
    "isTemplate": false,
    "count": 0,
    "updated": 0
  },
  {
    "id": "4be9806f-1b0b-4e84-9e46-652c9ba150fe",
    "data": [
      {
        "text": "Who is teaching the ",
        "userDefined": false
      },
      {
        "text": "workshop",
        "alias": "Activity",
        "meta": "@Activity",
        "userDefined": false
      }
    ],
    "isTemplate": false,
    "count": 0,
    "updated": 0
  },
  {
    "id": "b4b409db-13cc-452e-b1bf-ab7165802a89",
    "data": [
      {
        "text": "How can I find out who the ",
        "userDefined": false
      },
      {
        "text": "lecturer",
        "alias": "teacher",
        "meta": "@teacher",
        "userDefined": true
      },
      {
        "text": " is",
        "userDefined": false
      }
    ],
    "isTemplate": false,
    "count": 0,
    "updated": 0
  },
  {
    "id": "a19807b7-17be-4b90-9ff4-f4d85f5e0231",
    "data": [
      {
        "text": "I want to find out who my ",
        "userDefined": false
      },
      {
        "text": "lecturer",
        "alias": "teacher",
        "meta": "@teacher",
        "userDefined": true
      },
      {
        "text": " is",
        "userDefined": false
      }
    ],
    "isTemplate": false,
    "count": 0,
    "updated": 0
  },
  {
    "id": "623d238a-047d-4159-9f95-04402cbf0a78",
    "data": [
      {
        "text": "I want to see who my ",
        "userDefined": false
      },
      {
        "text": "tutor",
        "alias": "teacher",
        "meta": "@teacher",
        "userDefined": true
      },
      {
        "text": " is on ",
        "userDefined": false
      },
      {
        "text": "allocate",
        "alias": "Allocate",
        "meta": "@Allocate",
        "userDefined": false
      }
    ],
    "isTemplate": false,
    "count": 0,
    "updated": 0
  },
  {
    "id": "e29119bc-31f1-4281-8a41-392623070522",
    "data": [
      {
        "text": "Can I see who my ",
        "userDefined": false
      },
      {
        "text": "tutor",
        "alias": "teacher",
        "meta": "@teacher",
        "userDefined": true
      },
      {
        "text": " is on ",
        "userDefined": false
      },
      {
        "text": "allocate",
        "alias": "Allocate",
        "meta": "@Allocate",
        "userDefined": false
      }
    ],
    "isTemplate": false,
    "count": 0,
    "updated": 0
  },
  {
    "id": "c54ca3d4-f663-44e9-9045-4519c14e2f9d",
    "data": [
      {
        "text": "Who\u0027s my ",
        "userDefined": false
      },
      {
        "text": "tutor",
        "alias": "teacher",
        "meta": "@teacher",
        "userDefined": true
      }
    ],
    "isTemplate": false,
    "count": 0,
    "updated": 0
  },
  {
    "id": "29a06bd7-1356-4aea-9047-369cec58f562",
    "data": [
      {
        "text": "Who will be teaching my ",
        "userDefined": false
      },
      {
        "text": "tutorial",
        "alias": "Activity",
        "meta": "@Activity",
        "userDefined": false
      }
    ],
    "isTemplate": false,
    "count": 0,
    "updated": 0
  },
  {
    "id": "39f0fda1-6597-4405-886a-605ea0c582b7",
    "data": [
      {
        "text": "Can I see who my ",
        "userDefined": false
      },
      {
        "text": "lecturer",
        "alias": "teacher",
        "meta": "@teacher",
        "userDefined": true
      },
      {
        "text": " is on ",
        "userDefined": false
      },
      {
        "text": "allocate",
        "alias": "Allocate",
        "meta": "@Allocate",
        "userDefined": false
      }
    ],
    "isTemplate": false,
    "count": 1,
    "updated": 0
  },
  {
    "id": "2e5dc241-1a7a-433b-b1ab-49143af94e59",
    "data": [
      {
        "text": "Why is the ",
        "userDefined": false
      },
      {
        "text": "staff",
        "alias": "accountType",
        "meta": "@accountType",
        "userDefined": false
      },
      {
        "text": " column empty on ",
        "userDefined": false
      },
      {
        "text": "allocate",
        "alias": "Allocate",
        "meta": "@Allocate",
        "userDefined": false
      }
    ],
    "isTemplate": false,
    "count": 0,
    "updated": 0
  },
  {
    "id": "68aac894-6ea2-49c4-8c0f-0ca4ac88d09f",
    "data": [
      {
        "text": "How come the ",
        "userDefined": false
      },
      {
        "text": "staff",
        "alias": "accountType",
        "meta": "@accountType",
        "userDefined": false
      },
      {
        "text": " column is empty on ",
        "userDefined": false
      },
      {
        "text": "allocate",
        "alias": "Allocate",
        "meta": "@Allocate",
        "userDefined": false
      }
    ],
    "isTemplate": false,
    "count": 0,
    "updated": 0
  },
  {
    "id": "a345aaaf-25b1-4178-adc1-3ff87f8f06eb",
    "data": [
      {
        "text": "Who is my ",
        "userDefined": false
      },
      {
        "text": "tutor",
        "alias": "teacher",
        "meta": "@teacher",
        "userDefined": true
      }
    ],
    "isTemplate": false,
    "count": 0,
    "updated": 0
  },
  {
    "id": "1a8f3ccf-9d81-4f6c-b44b-81bb5a1938c7",
    "data": [
      {
        "text": "Who is my ",
        "userDefined": false
      },
      {
        "text": "lecturer",
        "alias": "teacher",
        "meta": "@teacher",
        "userDefined": true
      }
    ],
    "isTemplate": false,
    "count": 0,
    "updated": 0
  },
  {
    "id": "05139680-ade3-448d-9b9c-739791f9a451",
    "data": [
      {
        "text": "Why can\u0027t I see who will be teaching this ",
        "userDefined": false
      },
      {
        "text": "class",
        "alias": "Activity",
        "meta": "@Activity",
        "userDefined": true
      }
    ],
    "isTemplate": false,
    "count": 0,
    "updated": 0
  },
  {
    "id": "ab3816be-63c0-4a08-8cce-e8c84185a9c0",
    "data": [
      {
        "text": "Why is the staff column empty",
        "userDefined": false
      }
    ],
    "isTemplate": false,
    "count": 0,
    "updated": 0
  },
  {
    "id": "87c8199d-66e8-4209-9a8e-806a39b77441",
    "data": [
      {
        "text": "Who is teaching ",
        "userDefined": false
      },
      {
        "text": "the Wednesday",
        "alias": "date",
        "meta": "@sys.date",
        "userDefined": false
      },
      {
        "text": " ",
        "userDefined": false
      },
      {
        "text": "10am",
        "alias": "time",
        "meta": "@sys.time",
        "userDefined": false
      },
      {
        "text": " ",
        "userDefined": false
      },
      {
        "text": "workshop",
        "alias": "Activity",
        "meta": "@Activity",
        "userDefined": true
      }
    ],
    "isTemplate": false,
    "count": 0,
    "updated": 0
  },
  {
    "id": "50984dfb-9f82-41bc-b43d-11d9354d57df",
    "data": [
      {
        "text": "Who will be teaching a tutorial",
        "userDefined": false
      }
    ],
    "isTemplate": false,
    "count": 0,
    "updated": 0
  },
  {
    "id": "87fa8bc9-679a-4fdc-bbd1-2b72c506f51e",
    "data": [
      {
        "text": "I want to find out who the ",
        "userDefined": false
      },
      {
        "text": "lecturer",
        "alias": "teacher",
        "meta": "@teacher",
        "userDefined": true
      },
      {
        "text": " is",
        "userDefined": false
      }
    ],
    "isTemplate": false,
    "count": 0,
    "updated": 0
  }
]