[
  {
    "id": "04027730-7e6c-4665-be09-d4596a98e23a",
    "data": [
      {
        "text": "I have a question about ",
        "userDefined": false
      },
      {
        "text": "Allocate",
        "alias": "Allocate",
        "meta": "@Allocate",
        "userDefined": false
      }
    ],
    "isTemplate": false,
    "count": 0,
    "updated": 0
  },
  {
    "id": "ea3741e5-b26b-46f2-a55a-c0612fc01603",
    "data": [
      {
        "text": "Where is ",
        "userDefined": false
      },
      {
        "text": "Allocate",
        "alias": "Allocate",
        "meta": "@Allocate",
        "userDefined": false
      }
    ],
    "isTemplate": false,
    "count": 0,
    "updated": 0
  },
  {
    "id": "fdb10ef5-e3d0-410a-9e19-ea00c1fdfc61",
    "data": [
      {
        "text": "Link for ",
        "userDefined": false
      },
      {
        "text": "Allocate",
        "alias": "Allocate",
        "meta": "@Allocate",
        "userDefined": false
      }
    ],
    "isTemplate": false,
    "count": 0,
    "updated": 0
  },
  {
    "id": "9885c7ec-29a1-42ff-96ea-e175a3ab8db3",
    "data": [
      {
        "text": "Allocate plus",
        "alias": "Allocate",
        "meta": "@Allocate",
        "userDefined": false
      },
      {
        "text": " link",
        "userDefined": false
      }
    ],
    "isTemplate": false,
    "count": 0,
    "updated": 0
  },
  {
    "id": "cdb720d4-ddd0-4123-af24-1c406e51291e",
    "data": [
      {
        "text": "Allocate plus",
        "alias": "Allocate",
        "meta": "@Allocate",
        "userDefined": false
      }
    ],
    "isTemplate": false,
    "count": 0,
    "updated": 0
  },
  {
    "id": "c01624c9-c405-45d9-8e64-9c85dd2f0e76",
    "data": [
      {
        "text": "Allocate+",
        "alias": "Allocate",
        "meta": "@Allocate",
        "userDefined": false
      }
    ],
    "isTemplate": false,
    "count": 0,
    "updated": 0
  },
  {
    "id": "db3be43a-0754-4f8b-9cf1-90eae6e41163",
    "data": [
      {
        "text": "Tool for creating my timetable",
        "userDefined": false
      }
    ],
    "isTemplate": false,
    "count": 0,
    "updated": 0
  },
  {
    "id": "4f37584b-1d41-4c0c-be6e-a72b6d7956d1",
    "data": [
      {
        "text": "What tool do I use for creating my timetable",
        "userDefined": false
      }
    ],
    "isTemplate": false,
    "count": 0,
    "updated": 0
  },
  {
    "id": "351dbfeb-6d4f-4780-8f77-015ebb8265b5",
    "data": [
      {
        "text": "What\u0027s the tool for creating my timetable",
        "userDefined": false
      }
    ],
    "isTemplate": false,
    "count": 0,
    "updated": 0
  },
  {
    "id": "45492e04-226e-4f5d-8e95-ebe6cfee7534",
    "data": [
      {
        "text": "I want to get advice on ",
        "userDefined": false
      },
      {
        "text": "allocate",
        "alias": "Allocate",
        "meta": "@Allocate",
        "userDefined": false
      }
    ],
    "isTemplate": false,
    "count": 0,
    "updated": 0
  },
  {
    "id": "1d2d3ef1-9d8b-4788-aae3-6ee4e5c6fa79",
    "data": [
      {
        "text": "Can I get advice on ",
        "userDefined": false
      },
      {
        "text": "allocate",
        "alias": "Allocate",
        "meta": "@Allocate",
        "userDefined": false
      }
    ],
    "isTemplate": false,
    "count": 0,
    "updated": 0
  },
  {
    "id": "a257e475-93c1-4eaf-9e66-edc1e155d3a7",
    "data": [
      {
        "text": "Advice on ",
        "userDefined": false
      },
      {
        "text": "Allocate",
        "alias": "Allocate",
        "meta": "@Allocate",
        "userDefined": false
      }
    ],
    "isTemplate": false,
    "count": 0,
    "updated": 0
  },
  {
    "id": "c8ece88c-c542-4bb9-8255-c5a96ef01af6",
    "data": [
      {
        "text": "What is ",
        "userDefined": false
      },
      {
        "text": "Allocate",
        "alias": "Allocate",
        "meta": "@Allocate",
        "userDefined": false
      }
    ],
    "isTemplate": false,
    "count": 0,
    "updated": 0
  },
  {
    "id": "8af2f058-5d0c-4be1-9b2e-e518a29254f2",
    "data": [
      {
        "text": "What is the tool for creating my timetable",
        "userDefined": false
      }
    ],
    "isTemplate": false,
    "count": 0,
    "updated": 0
  },
  {
    "id": "bf5ca30a-6022-4ecc-b225-a66dfbbe830e",
    "data": [
      {
        "text": "What is ",
        "userDefined": false
      },
      {
        "text": "Allocate+",
        "alias": "Allocate",
        "meta": "@Allocate",
        "userDefined": true
      },
      {
        "text": " and how do I use it",
        "userDefined": false
      }
    ],
    "isTemplate": false,
    "count": 0,
    "updated": 0
  },
  {
    "id": "b880a1c5-1962-4dbf-b084-cf40e9216342",
    "data": [
      {
        "text": "What is ",
        "userDefined": false
      },
      {
        "text": "Allocate+",
        "alias": "Allocate",
        "meta": "@Allocate",
        "userDefined": true
      },
      {
        "text": " and how does it work",
        "userDefined": false
      }
    ],
    "isTemplate": false,
    "count": 0,
    "updated": 0
  }
]