[
  {
    "id": "08c57f92-75c4-4f85-aa98-ed9d3f938891",
    "data": [
      {
        "text": "I ",
        "userDefined": false
      },
      {
        "text": "chose",
        "alias": "choose",
        "meta": "@choose",
        "userDefined": false
      },
      {
        "text": " learning capture can i still attend a ",
        "userDefined": false
      },
      {
        "text": "lecture",
        "alias": "Activity",
        "meta": "@Activity",
        "userDefined": false
      }
    ],
    "isTemplate": false,
    "count": 0,
    "updated": 0
  },
  {
    "id": "4757af5a-39cb-47cb-afc6-cc1320838831",
    "data": [
      {
        "text": "I ",
        "userDefined": false
      },
      {
        "text": "chose",
        "alias": "choose",
        "meta": "@choose",
        "userDefined": false
      },
      {
        "text": " capture can I still attend ",
        "userDefined": false
      },
      {
        "text": "lectures",
        "alias": "Activity",
        "meta": "@Activity",
        "userDefined": false
      }
    ],
    "isTemplate": false,
    "count": 0,
    "updated": 0
  },
  {
    "id": "29bb6fd9-01b4-447e-8fe5-2925511aec25",
    "data": [
      {
        "text": "Can i attend ",
        "userDefined": false
      },
      {
        "text": "on-campus",
        "alias": "OnCampus",
        "meta": "@OnCampus",
        "userDefined": false
      },
      {
        "text": " ",
        "userDefined": false
      },
      {
        "text": "lectures",
        "alias": "Activity",
        "meta": "@Activity",
        "userDefined": false
      },
      {
        "text": " if I ",
        "userDefined": false
      },
      {
        "text": "chose",
        "alias": "choose",
        "meta": "@choose",
        "userDefined": false
      },
      {
        "text": " learning capture",
        "userDefined": false
      }
    ],
    "isTemplate": false,
    "count": 0,
    "updated": 0
  },
  {
    "id": "92a4f8c4-049c-4e50-b3d2-1dbd884d9fa5",
    "data": [
      {
        "text": "If i ",
        "userDefined": false
      },
      {
        "text": "chose",
        "alias": "choose",
        "meta": "@choose",
        "userDefined": false
      },
      {
        "text": " learning capture, can i still attend ",
        "userDefined": false
      },
      {
        "text": "lectures",
        "alias": "Activity",
        "meta": "@Activity",
        "userDefined": false
      },
      {
        "text": " ",
        "userDefined": false
      },
      {
        "text": "on campus",
        "alias": "OnCampus",
        "meta": "@OnCampus",
        "userDefined": false
      },
      {
        "text": "?",
        "userDefined": false
      }
    ],
    "isTemplate": false,
    "count": 0,
    "updated": 0
  },
  {
    "id": "eb4d36ac-e346-4821-8898-2fb9a63f41fa",
    "data": [
      {
        "text": "If i ",
        "userDefined": false
      },
      {
        "text": "select",
        "alias": "choose",
        "meta": "@choose",
        "userDefined": false
      },
      {
        "text": " recorded ",
        "userDefined": false
      },
      {
        "text": "lectures",
        "meta": "@sys.ignore",
        "userDefined": false
      },
      {
        "text": " and then go to ",
        "userDefined": false
      },
      {
        "text": "class",
        "meta": "@sys.ignore",
        "userDefined": false
      }
    ],
    "isTemplate": false,
    "count": 0,
    "updated": 0
  },
  {
    "id": "be796bb5-6c7b-4095-a2bb-039b731797e9",
    "data": [
      {
        "text": "I want to know if I can ",
        "userDefined": false
      },
      {
        "text": "select",
        "alias": "choose",
        "meta": "@choose",
        "userDefined": false
      },
      {
        "text": " recorded ",
        "userDefined": false
      },
      {
        "text": "lectures",
        "meta": "@sys.ignore",
        "userDefined": false
      },
      {
        "text": " and go to ",
        "userDefined": false
      },
      {
        "text": "class",
        "meta": "@sys.ignore",
        "userDefined": false
      }
    ],
    "isTemplate": false,
    "count": 0,
    "updated": 0
  },
  {
    "id": "e8c9745a-282c-4cf7-927b-5124493cae40",
    "data": [
      {
        "text": "If I\u0027m allocated to watch my ",
        "userDefined": false
      },
      {
        "text": "lecture",
        "meta": "@sys.ignore",
        "userDefined": false
      },
      {
        "text": " online, can I attend ",
        "userDefined": false
      },
      {
        "text": "on-campus",
        "alias": "OnCampus",
        "meta": "@OnCampus",
        "userDefined": false
      },
      {
        "text": " ",
        "userDefined": false
      },
      {
        "text": "lectures",
        "meta": "@sys.ignore",
        "userDefined": false
      }
    ],
    "isTemplate": false,
    "count": 0,
    "updated": 0
  },
  {
    "id": "051dac26-57d3-42c0-86ff-e161728d4373",
    "data": [
      {
        "text": "If I\u0027m allocated to watch my ",
        "userDefined": false
      },
      {
        "text": "lectures",
        "meta": "@sys.ignore",
        "userDefined": false
      },
      {
        "text": " online, can I attend the ",
        "userDefined": false
      },
      {
        "text": "on-campus",
        "alias": "OnCampus",
        "meta": "@OnCampus",
        "userDefined": false
      },
      {
        "text": " ",
        "userDefined": false
      },
      {
        "text": "lecture",
        "meta": "@sys.ignore",
        "userDefined": false
      }
    ],
    "isTemplate": false,
    "count": 0,
    "updated": 0
  },
  {
    "id": "0b540da9-a1c3-4bb7-979f-f07f5d3804a0",
    "data": [
      {
        "text": "I\u0027m allocated to watch my ",
        "userDefined": false
      },
      {
        "text": "lectures",
        "meta": "@sys.ignore",
        "userDefined": false
      },
      {
        "text": " online but can I attend the ",
        "userDefined": false
      },
      {
        "text": "on-campus",
        "alias": "OnCampus",
        "meta": "@OnCampus",
        "userDefined": false
      },
      {
        "text": " ",
        "userDefined": false
      },
      {
        "text": "lecture",
        "meta": "@sys.ignore",
        "userDefined": false
      }
    ],
    "isTemplate": false,
    "count": 0,
    "updated": 0
  },
  {
    "id": "3b726580-6387-4774-8693-fce5edc92291",
    "data": [
      {
        "text": "I want to know if i can attend the ",
        "userDefined": false
      },
      {
        "text": "lecture",
        "meta": "@sys.ignore",
        "userDefined": false
      },
      {
        "text": " if I ",
        "userDefined": false
      },
      {
        "text": "allocate",
        "meta": "@sys.ignore",
        "userDefined": false
      },
      {
        "text": " myself to the recorded version",
        "userDefined": false
      }
    ],
    "isTemplate": false,
    "count": 0,
    "updated": 0
  },
  {
    "id": "0a0889ec-ec44-4b52-a2e9-6075b0ce41f9",
    "data": [
      {
        "text": "I want to know if I can still attend the ",
        "userDefined": false
      },
      {
        "text": "lecture",
        "meta": "@sys.ignore",
        "userDefined": false
      },
      {
        "text": " if I ",
        "userDefined": false
      },
      {
        "text": "allocate",
        "meta": "@sys.ignore",
        "userDefined": false
      },
      {
        "text": " myself to the recorded ",
        "userDefined": false
      },
      {
        "text": "lecture",
        "meta": "@sys.ignore",
        "userDefined": false
      }
    ],
    "isTemplate": false,
    "count": 0,
    "updated": 0
  },
  {
    "id": "1ac67fdf-99e3-4333-8f37-c4cb118b0107",
    "data": [
      {
        "text": "If i ",
        "userDefined": false
      },
      {
        "text": "allocate",
        "meta": "@sys.ignore",
        "userDefined": false
      },
      {
        "text": " myself to the recorded ",
        "userDefined": false
      },
      {
        "text": "lecture",
        "meta": "@sys.ignore",
        "userDefined": false
      },
      {
        "text": ", can I still attend the ",
        "userDefined": false
      },
      {
        "text": "lecture",
        "meta": "@sys.ignore",
        "userDefined": false
      }
    ],
    "isTemplate": false,
    "count": 0,
    "updated": 0
  },
  {
    "id": "929dcce1-0480-4970-9f80-52ef0e3da391",
    "data": [
      {
        "text": "can",
        "meta": "@sys.ignore",
        "userDefined": false
      },
      {
        "text": " i still go to a lecture if I choose ",
        "userDefined": false
      },
      {
        "text": "learning capture",
        "meta": "@sys.ignore",
        "userDefined": true
      }
    ],
    "isTemplate": false,
    "count": 0,
    "updated": 0
  },
  {
    "id": "b5591871-4ac8-41b3-89fc-51dbfa4fbc9a",
    "data": [
      {
        "text": "can",
        "meta": "@sys.ignore",
        "userDefined": false
      },
      {
        "text": " i still go to a lecture if I choose ",
        "userDefined": false
      },
      {
        "text": "livestream",
        "meta": "@sys.ignore",
        "userDefined": true
      }
    ],
    "isTemplate": false,
    "count": 0,
    "updated": 0
  },
  {
    "id": "57ac3387-ae92-4671-9b7e-b9be6ba41c2e",
    "data": [
      {
        "text": "Can I attend the lecture if I ",
        "userDefined": false
      },
      {
        "text": "allocate",
        "meta": "@sys.ignore",
        "userDefined": false
      },
      {
        "text": " myself to the recorded version",
        "userDefined": false
      }
    ],
    "isTemplate": false,
    "count": 0,
    "updated": 0
  },
  {
    "id": "e4635e22-8d5f-4bd6-a213-32d717be8d2a",
    "data": [
      {
        "text": "Can you select recorded lectures and go to class",
        "userDefined": false
      }
    ],
    "isTemplate": false,
    "count": 0,
    "updated": 0
  },
  {
    "id": "06bb37b4-ee91-4ab5-95d9-cf0b91cdc1b7",
    "data": [
      {
        "text": " If I choose the online lecture option can I still attend the lecture ",
        "userDefined": false
      },
      {
        "text": "on campus",
        "alias": "OnCampus",
        "meta": "@OnCampus",
        "userDefined": true
      }
    ],
    "isTemplate": false,
    "count": 0,
    "updated": 0
  },
  {
    "id": "47a73b0f-7790-4352-a624-4dfd549790ae",
    "data": [
      {
        "text": "Can I attend ",
        "userDefined": false
      },
      {
        "text": "on-campus",
        "alias": "OnCampus",
        "meta": "@OnCampus",
        "userDefined": true
      },
      {
        "text": " lectures if I\u0027m allocated to watch them online",
        "userDefined": false
      }
    ],
    "isTemplate": false,
    "count": 0,
    "updated": 0
  },
  {
    "id": "7cb5ad3b-57b8-4f0c-b790-ae9a4bfac631",
    "data": [
      {
        "text": "If in ",
        "userDefined": false
      },
      {
        "text": "Allocate+",
        "meta": "@sys.ignore",
        "userDefined": true
      },
      {
        "text": " I choose the option of watching my unit\u0027s lectures online, can I still attend the ",
        "userDefined": false
      },
      {
        "text": "on-campus",
        "alias": "OnCampus",
        "meta": "@OnCampus",
        "userDefined": true
      },
      {
        "text": " lectures",
        "userDefined": false
      }
    ],
    "isTemplate": false,
    "count": 0,
    "updated": 0
  }
]