[
  {
    "id": "1da2c6be-90b9-490d-958c-e51709804749",
    "data": [
      {
        "text": "Can you tell me what clashes are ",
        "userDefined": false
      },
      {
        "text": "permitted",
        "meta": "@sys.ignore",
        "userDefined": false
      },
      {
        "text": " means",
        "userDefined": false
      }
    ],
    "isTemplate": false,
    "count": 0,
    "updated": 0
  },
  {
    "id": "ac47ff9d-2726-450c-af22-846cdc684ee0",
    "data": [
      {
        "text": "I want to know what clashes are ",
        "userDefined": false
      },
      {
        "text": "permitted",
        "meta": "@sys.ignore",
        "userDefined": false
      },
      {
        "text": " mean",
        "userDefined": false
      }
    ],
    "isTemplate": false,
    "count": 0,
    "updated": 0
  },
  {
    "id": "a97d4151-94ea-43dd-ad20-831de043f84b",
    "data": [
      {
        "text": "What does clashes are ",
        "userDefined": false
      },
      {
        "text": "permitted",
        "meta": "@sys.ignore",
        "userDefined": false
      },
      {
        "text": " mean",
        "userDefined": false
      }
    ],
    "isTemplate": false,
    "count": 0,
    "updated": 0
  },
  {
    "id": "fb5db012-1930-400c-bbd0-d65a2d7167cf",
    "data": [
      {
        "text": "What does ",
        "userDefined": false
      },
      {
        "text": "it",
        "meta": "@sys.ignore",
        "userDefined": false
      },
      {
        "text": " mean if clashes are ",
        "userDefined": false
      },
      {
        "text": "permitted",
        "meta": "@sys.ignore",
        "userDefined": false
      }
    ],
    "isTemplate": false,
    "count": 0,
    "updated": 0
  },
  {
    "id": "c3da722a-60b9-4582-b3a8-5308a83a0101",
    "data": [
      {
        "text": "What does clashes are permitted mean?",
        "userDefined": false
      }
    ],
    "isTemplate": false,
    "count": 0,
    "updated": 0
  },
  {
    "id": "b9305152-182c-41d0-9bf0-4920cc484993",
    "data": [
      {
        "text": "Clashes are permitted?",
        "userDefined": false
      }
    ],
    "isTemplate": false,
    "count": 0,
    "updated": 0
  },
  {
    "id": "a7d1f28f-be52-4e3f-8265-ac2927732763",
    "data": [
      {
        "text": "What does ",
        "userDefined": false
      },
      {
        "text": "it",
        "meta": "@sys.ignore",
        "userDefined": false
      },
      {
        "text": " mean by clashes are permitted?",
        "userDefined": false
      }
    ],
    "isTemplate": false,
    "count": 0,
    "updated": 0
  }
]