{
  "id": "d421eaee-9aa5-4caa-a1cc-c8e37edfcbd2",
  "name": "TIM 365 general allocate codes",
  "auto": true,
  "contexts": [],
  "responses": [
    {
      "resetContexts": false,
      "affectedContexts": [],
      "parameters": [
        {
          "id": "d7c61a80-8a0c-42ba-917d-e02bd480c933",
          "required": false,
          "dataType": "@Allocate",
          "name": "Allocate",
          "value": "$Allocate",
          "promptMessages": [],
          "noMatchPromptMessages": [],
          "noInputPromptMessages": [],
          "outputDialogContexts": [],
          "isList": false
        },
        {
          "id": "da6cabc6-add2-4f15-818e-8b2c63478db1",
          "required": false,
          "dataType": "@Activity",
          "name": "Activity",
          "value": "$Activity",
          "promptMessages": [],
          "noMatchPromptMessages": [],
          "noInputPromptMessages": [],
          "outputDialogContexts": [],
          "isList": false
        }
      ],
      "messages": [
        {
          "type": 0,
          "lang": "en",
          "condition": "",
          "speech": "\u003cp\u003eYou can find your class location by clicking on the activity in the \u003cstrong\u003etimetable\u003c/strong\u003e view. A map and room code are provided.\u003c/p\u003e\n\n\u003cp\u003eThe room code in \u003ca href\u003d\"https://www.monash.edu/timetables/login\" target\u003d\"_blank\" rel\u003d\"noopener noreferrer\"\u003eAllocate+\u003c/a\u003e is broken into three sections: the campus, the building, and the room. Buildings on Clayton campus have a street name and number rather than a building number.\u003c/p\u003e\n\n\u003cp\u003eFor further details and a list of campus codes, see our web page on \u003ca href\u003d\"https://www.monash.edu/timetables/about/codes-abbreviations\" target\u003d\"_blank\" rel\u003d\"noopener noreferrer\"\u003ecodes and abbreviations\u003c/a\u003e.\u003c/p\u003e\n\n\u003cp\u003eTo help you find your classroom, you can use our \u003ca href\u003d\"https://www.monash.edu/people/maps\" target\u003d\"_blank\" rel\u003d\"noopener noreferrer\"\u003einteractive maps\u003c/a\u003e.\u003c/p\u003e"
        }
      ],
      "defaultResponsePlatforms": {},
      "speech": []
    }
  ],
  "priority": 500000,
  "webhookUsed": false,
  "webhookForSlotFilling": false,
  "fallbackIntent": false,
  "events": [],
  "conditionalResponses": [],
  "condition": "",
  "conditionalFollowupEvents": []
}