[
  {
    "id": "3c505a5c-08cc-48f0-93e3-bb7ceea57d04",
    "data": [
      {
        "text": "What learning ",
        "userDefined": false
      },
      {
        "text": "activity",
        "alias": "Activity",
        "meta": "@Activity",
        "userDefined": false
      },
      {
        "text": " types will my subject have",
        "userDefined": false
      }
    ],
    "isTemplate": false,
    "count": 0,
    "updated": 0
  },
  {
    "id": "1858430b-81b0-4d05-a47a-173e7cf9aa61",
    "data": [
      {
        "text": "I want to know what type of ",
        "userDefined": false
      },
      {
        "text": "activity",
        "alias": "Activity",
        "meta": "@Activity",
        "userDefined": false
      },
      {
        "text": " my subject will be",
        "userDefined": false
      }
    ],
    "isTemplate": false,
    "count": 0,
    "updated": 0
  },
  {
    "id": "961c0770-63d3-41c6-a211-935116452b4f",
    "data": [
      {
        "text": "Which type of learning ",
        "userDefined": false
      },
      {
        "text": "activity",
        "alias": "Activity",
        "meta": "@Activity",
        "userDefined": false
      },
      {
        "text": " will my subject be",
        "userDefined": false
      }
    ],
    "isTemplate": false,
    "count": 0,
    "updated": 0
  },
  {
    "id": "5433d42d-5368-4973-bcab-84b2cbfec2ff",
    "data": [
      {
        "text": "What ",
        "userDefined": false
      },
      {
        "text": "activity",
        "alias": "Activity",
        "meta": "@Activity",
        "userDefined": false
      },
      {
        "text": " types will my subject have",
        "userDefined": false
      }
    ],
    "isTemplate": false,
    "count": 0,
    "updated": 0
  },
  {
    "id": "af8fdbe7-59d0-499a-af66-f5dd81db01ad",
    "data": [
      {
        "text": "Is there a difference between ",
        "userDefined": false
      },
      {
        "text": "tutorials",
        "alias": "Activity",
        "meta": "@Activity",
        "userDefined": false
      },
      {
        "text": " and ",
        "userDefined": false
      },
      {
        "text": "workshops",
        "alias": "Activity1",
        "meta": "@Activity",
        "userDefined": false
      }
    ],
    "isTemplate": false,
    "count": 0,
    "updated": 0
  },
  {
    "id": "362fcea4-b5a3-4583-8ee7-ad1fe9a3d0a9",
    "data": [
      {
        "text": "I want to know if a ",
        "userDefined": false
      },
      {
        "text": "tutorial",
        "alias": "Activity",
        "meta": "@Activity",
        "userDefined": false
      },
      {
        "text": " and ",
        "userDefined": false
      },
      {
        "text": "workshop",
        "alias": "Activity1",
        "meta": "@Activity",
        "userDefined": false
      },
      {
        "text": " are the same",
        "userDefined": false
      }
    ],
    "isTemplate": false,
    "count": 0,
    "updated": 0
  },
  {
    "id": "db72cea5-3a17-4a55-8254-b5f3aa32eafb",
    "data": [
      {
        "text": "Is a ",
        "userDefined": false
      },
      {
        "text": "tutorial",
        "alias": "Activity",
        "meta": "@Activity",
        "userDefined": false
      },
      {
        "text": " and ",
        "userDefined": false
      },
      {
        "text": "workshop",
        "alias": "Activity1",
        "meta": "@Activity",
        "userDefined": false
      },
      {
        "text": " the same thing",
        "userDefined": false
      }
    ],
    "isTemplate": false,
    "count": 0,
    "updated": 0
  },
  {
    "id": "46a6e904-6228-492c-aaa1-70c34e088ca3",
    "data": [
      {
        "text": "What\u0027s the difference between a ",
        "userDefined": false
      },
      {
        "text": "tutorial",
        "alias": "Activity",
        "meta": "@Activity",
        "userDefined": false
      },
      {
        "text": " and a ",
        "userDefined": false
      },
      {
        "text": "workshop",
        "alias": "Activity1",
        "meta": "@Activity",
        "userDefined": false
      }
    ],
    "isTemplate": false,
    "count": 0,
    "updated": 0
  },
  {
    "id": "63d14d3c-ba51-4328-b7a6-198f605c5471",
    "data": [
      {
        "text": "Is there a difference between a ",
        "userDefined": false
      },
      {
        "text": "lecture",
        "alias": "Activity",
        "meta": "@Activity",
        "userDefined": false
      },
      {
        "text": " and seminar",
        "userDefined": false
      }
    ],
    "isTemplate": false,
    "count": 0,
    "updated": 0
  },
  {
    "id": "7cd537b8-8227-401a-8aa6-5f7cc3f2a462",
    "data": [
      {
        "text": "I want to know if a lecture and seminar are the same",
        "userDefined": false
      }
    ],
    "isTemplate": false,
    "count": 0,
    "updated": 0
  },
  {
    "id": "f47d5805-b5f1-4435-9a09-69dcc2a2bf68",
    "data": [
      {
        "text": "Is a ",
        "userDefined": false
      },
      {
        "text": "lecture",
        "alias": "Activity",
        "meta": "@Activity",
        "userDefined": false
      },
      {
        "text": " and seminar the same thing",
        "userDefined": false
      }
    ],
    "isTemplate": false,
    "count": 0,
    "updated": 0
  },
  {
    "id": "86d8840b-c241-444c-aad9-470b9fb716a2",
    "data": [
      {
        "text": "What\u0027s the difference between a ",
        "userDefined": false
      },
      {
        "text": "lecture",
        "alias": "Activity",
        "meta": "@Activity",
        "userDefined": false
      },
      {
        "text": " and a seminar",
        "userDefined": false
      }
    ],
    "isTemplate": false,
    "count": 0,
    "updated": 0
  },
  {
    "id": "bb3c29c3-47c4-4b2b-ba58-271f28ff773f",
    "data": [
      {
        "text": "What learning activity types will my unit have",
        "userDefined": false
      }
    ],
    "isTemplate": false,
    "count": 0,
    "updated": 0
  },
  {
    "id": "87ba1d69-f748-4f9e-adcb-a6dc49d7efd5",
    "data": [
      {
        "text": "I want to know what type of activity my unit will be",
        "userDefined": false
      }
    ],
    "isTemplate": false,
    "count": 0,
    "updated": 0
  },
  {
    "id": "d519d870-c46e-4d29-92af-5251522f6ec6",
    "data": [
      {
        "text": "Which type of learning ",
        "userDefined": false
      },
      {
        "text": "activity",
        "alias": "Activity",
        "meta": "@Activity",
        "userDefined": false
      },
      {
        "text": " will my unit be",
        "userDefined": false
      }
    ],
    "isTemplate": false,
    "count": 0,
    "updated": 0
  },
  {
    "id": "b611902c-ab35-4d13-9ae1-0ab255ff0966",
    "data": [
      {
        "text": "What ",
        "userDefined": false
      },
      {
        "text": "activity",
        "alias": "Activity",
        "meta": "@Activity",
        "userDefined": false
      },
      {
        "text": " types will my unit have",
        "userDefined": false
      }
    ],
    "isTemplate": false,
    "count": 0,
    "updated": 0
  },
  {
    "id": "39814093-2059-4dca-9c6b-5147b9cc3d25",
    "data": [
      {
        "text": "I want to know what learning activity types Monash offers",
        "userDefined": false
      }
    ],
    "isTemplate": false,
    "count": 0,
    "updated": 0
  },
  {
    "id": "9b35a72a-b7a2-4946-beef-f4ae84868d69",
    "data": [
      {
        "text": "What are all the learning ",
        "userDefined": false
      },
      {
        "text": "activity",
        "alias": "Activity",
        "meta": "@Activity",
        "userDefined": false
      },
      {
        "text": " types Monash offers",
        "userDefined": false
      }
    ],
    "isTemplate": false,
    "count": 0,
    "updated": 0
  },
  {
    "id": "bee6d919-44b5-4fa3-9cce-ab7c9d88afcb",
    "data": [
      {
        "text": "Learning activity types at Monash",
        "userDefined": false
      }
    ],
    "isTemplate": false,
    "count": 0,
    "updated": 0
  },
  {
    "id": "8d390ef4-147c-403c-a4bb-2c759defe83e",
    "data": [
      {
        "text": "What ",
        "userDefined": false
      },
      {
        "text": "activity",
        "alias": "Activity",
        "meta": "@Activity",
        "userDefined": false
      },
      {
        "text": " types does Monash provide",
        "userDefined": false
      }
    ],
    "isTemplate": false,
    "count": 0,
    "updated": 0
  },
  {
    "id": "d954b3c1-14bf-49e5-8b5c-0f3f4cf5b922",
    "data": [
      {
        "text": "What activity types are there at Monash",
        "userDefined": false
      }
    ],
    "isTemplate": false,
    "count": 0,
    "updated": 0
  },
  {
    "id": "0a9388c6-d52c-40d5-9672-b61bb5c9e8ac",
    "data": [
      {
        "text": "Where can I find out what all the activity types on Allocate mean",
        "userDefined": false
      }
    ],
    "isTemplate": false,
    "count": 0,
    "updated": 0
  },
  {
    "id": "e63468d0-d04f-4078-8b2e-23dbc3e8706f",
    "data": [
      {
        "text": "Is there a difference between the ",
        "userDefined": false
      },
      {
        "text": "activity",
        "alias": "Activity",
        "meta": "@Activity",
        "userDefined": false
      },
      {
        "text": " types on ",
        "userDefined": false
      },
      {
        "text": "Allocate",
        "alias": "Allocate",
        "meta": "@Allocate",
        "userDefined": false
      }
    ],
    "isTemplate": false,
    "count": 0,
    "updated": 0
  },
  {
    "id": "3c00f05a-c96a-4f52-9447-cf9f6cae510a",
    "data": [
      {
        "text": "What\u0027s the difference between all the ",
        "userDefined": false
      },
      {
        "text": "activity",
        "alias": "Activity",
        "meta": "@Activity",
        "userDefined": false
      },
      {
        "text": " types on ",
        "userDefined": false
      },
      {
        "text": "Allocate",
        "alias": "Allocate",
        "meta": "@Allocate",
        "userDefined": false
      }
    ],
    "isTemplate": false,
    "count": 0,
    "updated": 0
  },
  {
    "id": "adeca78e-6432-4954-b2f8-c9fa268bfb1f",
    "data": [
      {
        "text": "What do the different ",
        "userDefined": false
      },
      {
        "text": "activity",
        "alias": "Activity",
        "meta": "@Activity",
        "userDefined": false
      },
      {
        "text": " types mean on ",
        "userDefined": false
      },
      {
        "text": "Allocate",
        "alias": "Allocate",
        "meta": "@Allocate",
        "userDefined": false
      }
    ],
    "isTemplate": false,
    "count": 0,
    "updated": 0
  },
  {
    "id": "b94d71b6-5668-420f-a7c6-bc45f6a775bd",
    "data": [
      {
        "text": "What are the different activity types on Allocate",
        "userDefined": false
      }
    ],
    "isTemplate": false,
    "count": 0,
    "updated": 0
  },
  {
    "id": "fa706bc6-34ca-4d33-91ac-02b76baa79d4",
    "data": [
      {
        "text": "What do the activity types on Allocate mean",
        "userDefined": false
      }
    ],
    "isTemplate": false,
    "count": 1,
    "updated": 0
  },
  {
    "id": "fdbf699b-4779-480c-8516-1159c4dc7b1e",
    "data": [
      {
        "text": "What\u0027s the purpose of a studio",
        "userDefined": false
      }
    ],
    "isTemplate": false,
    "count": 0,
    "updated": 0
  },
  {
    "id": "6ab51ef5-8c03-43b9-bad1-e8dab0c70207",
    "data": [
      {
        "text": "What do ",
        "userDefined": false
      },
      {
        "text": "we",
        "meta": "@sys.ignore",
        "userDefined": false
      },
      {
        "text": " do in studios",
        "userDefined": false
      }
    ],
    "isTemplate": false,
    "count": 0,
    "updated": 0
  },
  {
    "id": "e3060910-37bf-47ca-9ad5-f61eedeec2ba",
    "data": [
      {
        "text": "What happens in a studio",
        "userDefined": false
      }
    ],
    "isTemplate": false,
    "count": 0,
    "updated": 0
  },
  {
    "id": "d71079f1-b4f2-48f3-88ea-2a5f212f9756",
    "data": [
      {
        "text": "I don\u0027t know what a studio is",
        "userDefined": false
      }
    ],
    "isTemplate": false,
    "count": 0,
    "updated": 0
  },
  {
    "id": "aa2ee4e8-5874-4b0e-8b47-e663462a00e0",
    "data": [
      {
        "text": "What is a studio",
        "userDefined": false
      }
    ],
    "isTemplate": false,
    "count": 0,
    "updated": 0
  },
  {
    "id": "6a18221e-72ea-495b-9bf7-804dba4edba8",
    "data": [
      {
        "text": "What\u0027s the purpose of an applied ",
        "userDefined": false
      },
      {
        "text": "class",
        "alias": "Activity",
        "meta": "@Activity",
        "userDefined": false
      }
    ],
    "isTemplate": false,
    "count": 0,
    "updated": 0
  },
  {
    "id": "56bb42eb-9346-4ffc-9d90-b87ec06b6e0c",
    "data": [
      {
        "text": "What do ",
        "userDefined": false
      },
      {
        "text": "we",
        "meta": "@sys.ignore",
        "userDefined": false
      },
      {
        "text": " do in applied ",
        "userDefined": false
      },
      {
        "text": "classes",
        "alias": "Activity",
        "meta": "@Activity",
        "userDefined": false
      }
    ],
    "isTemplate": false,
    "count": 0,
    "updated": 0
  },
  {
    "id": "71b18df7-cc07-4e6c-a48e-1de4c4b15262",
    "data": [
      {
        "text": "What happens in am applied ",
        "userDefined": false
      },
      {
        "text": "class",
        "alias": "Activity",
        "meta": "@Activity",
        "userDefined": false
      }
    ],
    "isTemplate": false,
    "count": 0,
    "updated": 0
  },
  {
    "id": "16197b5e-ccbc-44df-9357-2491f6bc4427",
    "data": [
      {
        "text": "I don\u0027t know what am applied ",
        "userDefined": false
      },
      {
        "text": "class",
        "alias": "Activity",
        "meta": "@Activity",
        "userDefined": false
      },
      {
        "text": " is",
        "userDefined": false
      }
    ],
    "isTemplate": false,
    "count": 0,
    "updated": 0
  },
  {
    "id": "c79c01ec-5208-4c72-95cb-744a2da7ebec",
    "data": [
      {
        "text": "What is am applied ",
        "userDefined": false
      },
      {
        "text": "class",
        "alias": "Activity",
        "meta": "@Activity",
        "userDefined": false
      }
    ],
    "isTemplate": false,
    "count": 0,
    "updated": 0
  },
  {
    "id": "f641a4d1-260b-4a28-a80b-953a9d1f9049",
    "data": [
      {
        "text": "What\u0027s the purpose of a ",
        "userDefined": false
      },
      {
        "text": "workshop",
        "alias": "Activity",
        "meta": "@Activity",
        "userDefined": false
      }
    ],
    "isTemplate": false,
    "count": 0,
    "updated": 0
  },
  {
    "id": "c5a4e0fd-a703-46e6-b2ff-12aecac1a141",
    "data": [
      {
        "text": "What do ",
        "userDefined": false
      },
      {
        "text": "we",
        "meta": "@sys.ignore",
        "userDefined": false
      },
      {
        "text": " do in ",
        "userDefined": false
      },
      {
        "text": "workshops",
        "alias": "Activity",
        "meta": "@Activity",
        "userDefined": false
      }
    ],
    "isTemplate": false,
    "count": 0,
    "updated": 0
  },
  {
    "id": "e7d56a2a-3e2c-4a86-ab4e-721951d19b4f",
    "data": [
      {
        "text": "What happens in a ",
        "userDefined": false
      },
      {
        "text": "workshop",
        "alias": "Activity",
        "meta": "@Activity",
        "userDefined": false
      }
    ],
    "isTemplate": false,
    "count": 0,
    "updated": 0
  },
  {
    "id": "9b100f53-dd5a-49fd-9349-c9e02f709983",
    "data": [
      {
        "text": "I don\u0027t know what a ",
        "userDefined": false
      },
      {
        "text": "workshop",
        "alias": "Activity",
        "meta": "@Activity",
        "userDefined": false
      },
      {
        "text": " is",
        "userDefined": false
      }
    ],
    "isTemplate": false,
    "count": 0,
    "updated": 0
  },
  {
    "id": "7f6bfc1c-287d-4c99-916f-c2442538002d",
    "data": [
      {
        "text": "What is a ",
        "userDefined": false
      },
      {
        "text": "workshop",
        "alias": "Activity",
        "meta": "@Activity",
        "userDefined": false
      }
    ],
    "isTemplate": false,
    "count": 0,
    "updated": 0
  },
  {
    "id": "30f12388-3ae2-4685-adb9-fc1eec954b42",
    "data": [
      {
        "text": "What\u0027s the purpose of a prac",
        "userDefined": false
      }
    ],
    "isTemplate": false,
    "count": 0,
    "updated": 0
  },
  {
    "id": "19652e1a-c7d9-46a2-854b-9d1b024e844d",
    "data": [
      {
        "text": "What happens in a prac",
        "userDefined": false
      }
    ],
    "isTemplate": false,
    "count": 0,
    "updated": 0
  },
  {
    "id": "8269674f-ac73-4d40-a804-88d548fda29b",
    "data": [
      {
        "text": "What do ",
        "userDefined": false
      },
      {
        "text": "we",
        "meta": "@sys.ignore",
        "userDefined": false
      },
      {
        "text": " do in pracs",
        "userDefined": false
      }
    ],
    "isTemplate": false,
    "count": 0,
    "updated": 0
  },
  {
    "id": "c458bc58-d0ac-48ba-a47b-ee0f61fe510a",
    "data": [
      {
        "text": "what is a prac",
        "userDefined": false
      }
    ],
    "isTemplate": false,
    "count": 0,
    "updated": 0
  },
  {
    "id": "a20095a9-82fc-4b79-b4b8-99d218512535",
    "data": [
      {
        "text": "What\u0027s the purpose of a practical",
        "userDefined": false
      }
    ],
    "isTemplate": false,
    "count": 0,
    "updated": 0
  },
  {
    "id": "5220c5a6-8379-4d07-8d64-8c9eb1f8393e",
    "data": [
      {
        "text": "What do ",
        "userDefined": false
      },
      {
        "text": "we",
        "meta": "@sys.ignore",
        "userDefined": false
      },
      {
        "text": " do in practicals",
        "userDefined": false
      }
    ],
    "isTemplate": false,
    "count": 0,
    "updated": 0
  },
  {
    "id": "63ee7c99-2712-4e68-8117-8abeb1bafacc",
    "data": [
      {
        "text": "What happens in a practical",
        "userDefined": false
      }
    ],
    "isTemplate": false,
    "count": 0,
    "updated": 0
  },
  {
    "id": "a0e7fa02-6764-41f3-a795-469cc45c653e",
    "data": [
      {
        "text": "I don\u0027t know what a practical is",
        "userDefined": false
      }
    ],
    "isTemplate": false,
    "count": 0,
    "updated": 0
  },
  {
    "id": "00e339d5-11ae-4d12-aae3-d3638129eccb",
    "data": [
      {
        "text": "What is a practical",
        "userDefined": false
      }
    ],
    "isTemplate": false,
    "count": 0,
    "updated": 0
  },
  {
    "id": "b3082295-56e2-4e37-8f82-9e7368e0a508",
    "data": [
      {
        "text": "I have a lab but I don\u0027t know what that is",
        "userDefined": false
      }
    ],
    "isTemplate": false,
    "count": 0,
    "updated": 0
  },
  {
    "id": "349c8be0-6322-4d24-bafa-b22366aed8bb",
    "data": [
      {
        "text": "Is there a difference between a lab and a ",
        "userDefined": false
      },
      {
        "text": "tutorial",
        "alias": "Activity",
        "meta": "@Activity",
        "userDefined": false
      }
    ],
    "isTemplate": false,
    "count": 0,
    "updated": 0
  },
  {
    "id": "e31ed5b5-2059-42a7-852c-5f48a34c5685",
    "data": [
      {
        "text": "What\u0027s the purpose of a laboratory",
        "userDefined": false
      }
    ],
    "isTemplate": false,
    "count": 0,
    "updated": 0
  },
  {
    "id": "2844c45a-d77d-4a60-a3b7-82d53afc6cee",
    "data": [
      {
        "text": "What happens in a laboratory",
        "userDefined": false
      }
    ],
    "isTemplate": false,
    "count": 0,
    "updated": 0
  },
  {
    "id": "7fca091c-d4c5-47e2-96fe-f1f5dd5cfda0",
    "data": [
      {
        "text": "I don\u0027t know what a laboratory is",
        "userDefined": false
      }
    ],
    "isTemplate": false,
    "count": 0,
    "updated": 0
  },
  {
    "id": "5dde5355-5e60-4851-8ec7-1ed299877404",
    "data": [
      {
        "text": "What is a laboratory",
        "userDefined": false
      }
    ],
    "isTemplate": false,
    "count": 0,
    "updated": 0
  },
  {
    "id": "69b86e0c-0345-43f9-a50c-e3b791c40435",
    "data": [
      {
        "text": "What\u0027s the purpose of a ",
        "userDefined": false
      },
      {
        "text": "tutorial",
        "alias": "Activity",
        "meta": "@Activity",
        "userDefined": false
      }
    ],
    "isTemplate": false,
    "count": 0,
    "updated": 0
  },
  {
    "id": "be6361d9-f36f-42fe-baea-a9c4c5a73567",
    "data": [
      {
        "text": "What do ",
        "userDefined": false
      },
      {
        "text": "we",
        "meta": "@sys.ignore",
        "userDefined": false
      },
      {
        "text": " do in ",
        "userDefined": false
      },
      {
        "text": "tutorials",
        "alias": "Activity",
        "meta": "@Activity",
        "userDefined": false
      }
    ],
    "isTemplate": false,
    "count": 0,
    "updated": 0
  },
  {
    "id": "cbb8c0d1-7fd6-4f28-8ff6-5c90ab326d64",
    "data": [
      {
        "text": "What happens in a ",
        "userDefined": false
      },
      {
        "text": "tutorial",
        "alias": "Activity",
        "meta": "@Activity",
        "userDefined": false
      }
    ],
    "isTemplate": false,
    "count": 0,
    "updated": 0
  },
  {
    "id": "8de23d19-7bfb-48f4-ba0b-2323991753a9",
    "data": [
      {
        "text": "I don\u0027t know what a ",
        "userDefined": false
      },
      {
        "text": "tutorial",
        "alias": "Activity",
        "meta": "@Activity",
        "userDefined": false
      },
      {
        "text": " is",
        "userDefined": false
      }
    ],
    "isTemplate": false,
    "count": 0,
    "updated": 0
  },
  {
    "id": "4b4b5f57-f36f-4070-a51f-4e9aad7a174c",
    "data": [
      {
        "text": "What is a ",
        "userDefined": false
      },
      {
        "text": "tutorial",
        "alias": "Activity",
        "meta": "@Activity",
        "userDefined": false
      }
    ],
    "isTemplate": false,
    "count": 0,
    "updated": 0
  },
  {
    "id": "c2099dd0-51a5-482e-a55c-32bf5101ba4b",
    "data": [
      {
        "text": "What\u0027s the purpose of a seminar",
        "userDefined": false
      }
    ],
    "isTemplate": false,
    "count": 0,
    "updated": 0
  },
  {
    "id": "5f3778dd-937d-46fb-ae70-8301f1e8b351",
    "data": [
      {
        "text": "What do ",
        "userDefined": false
      },
      {
        "text": "we",
        "meta": "@sys.ignore",
        "userDefined": false
      },
      {
        "text": " do in seminars",
        "userDefined": false
      }
    ],
    "isTemplate": false,
    "count": 0,
    "updated": 0
  },
  {
    "id": "97922bc1-bf77-4831-89a3-79aea242f28d",
    "data": [
      {
        "text": "What happens in a seminar",
        "userDefined": false
      }
    ],
    "isTemplate": false,
    "count": 0,
    "updated": 0
  },
  {
    "id": "fe83ace0-0786-4c96-8e5b-5322bb013c51",
    "data": [
      {
        "text": "I don\u0027t know what a seminar is",
        "userDefined": false
      }
    ],
    "isTemplate": false,
    "count": 0,
    "updated": 0
  },
  {
    "id": "f76d6036-e6f4-43bb-b48f-ae5b633e3387",
    "data": [
      {
        "text": "What is a seminar",
        "userDefined": false
      }
    ],
    "isTemplate": false,
    "count": 0,
    "updated": 0
  },
  {
    "id": "c6b33c87-e44a-4bf5-9813-caf918bc6622",
    "data": [
      {
        "text": "What\u0027s the purpose of a ",
        "userDefined": false
      },
      {
        "text": "lecture",
        "alias": "Activity",
        "meta": "@Activity",
        "userDefined": false
      }
    ],
    "isTemplate": false,
    "count": 0,
    "updated": 0
  },
  {
    "id": "618a5e9a-3489-4d7d-bb2e-9fc32a0c67c3",
    "data": [
      {
        "text": "What do ",
        "userDefined": false
      },
      {
        "text": "we",
        "meta": "@sys.ignore",
        "userDefined": false
      },
      {
        "text": " do in ",
        "userDefined": false
      },
      {
        "text": "lectures",
        "alias": "Activity",
        "meta": "@Activity",
        "userDefined": false
      }
    ],
    "isTemplate": false,
    "count": 0,
    "updated": 0
  },
  {
    "id": "c72372e1-e5f0-4f84-afbc-5644f4d7b413",
    "data": [
      {
        "text": "What happens in a ",
        "userDefined": false
      },
      {
        "text": "lecture",
        "alias": "Activity",
        "meta": "@Activity",
        "userDefined": false
      }
    ],
    "isTemplate": false,
    "count": 0,
    "updated": 0
  },
  {
    "id": "ee6e26f1-1a19-4ecd-8116-451c4f8032d9",
    "data": [
      {
        "text": "I don\u0027t know what a ",
        "userDefined": false
      },
      {
        "text": "lecture",
        "alias": "Activity",
        "meta": "@Activity",
        "userDefined": false
      },
      {
        "text": " is",
        "userDefined": false
      }
    ],
    "isTemplate": false,
    "count": 0,
    "updated": 0
  },
  {
    "id": "71ef656a-cefc-4ca7-8727-21d51948eb32",
    "data": [
      {
        "text": "What is a lecture",
        "userDefined": false
      }
    ],
    "isTemplate": false,
    "count": 0,
    "updated": 0
  },
  {
    "id": "b499282d-66e1-4df6-88b5-80984d2ce49e",
    "data": [
      {
        "text": "What do the different ",
        "userDefined": false
      },
      {
        "text": "class",
        "alias": "Activity",
        "meta": "@Activity",
        "userDefined": false
      },
      {
        "text": " types mean",
        "userDefined": false
      }
    ],
    "isTemplate": false,
    "count": 0,
    "updated": 0
  },
  {
    "id": "a65253c6-f2a4-408a-9ec3-3f2fb1f9ac4c",
    "data": [
      {
        "text": "What\u0027s the difference between all the ",
        "userDefined": false
      },
      {
        "text": "class",
        "alias": "Activity",
        "meta": "@Activity",
        "userDefined": false
      },
      {
        "text": " types",
        "userDefined": false
      }
    ],
    "isTemplate": false,
    "count": 0,
    "updated": 0
  },
  {
    "id": "d497695e-f430-49a7-a6de-3fa54be4e5a8",
    "data": [
      {
        "text": "I don\u0027t know what the different ",
        "userDefined": false
      },
      {
        "text": "class",
        "alias": "Activity",
        "meta": "@Activity",
        "userDefined": false
      },
      {
        "text": " types mean",
        "userDefined": false
      }
    ],
    "isTemplate": false,
    "count": 0,
    "updated": 0
  },
  {
    "id": "7950d576-8ce2-4435-badb-2fe8ae29cc67",
    "data": [
      {
        "text": "I don\u0027t know what the the different ",
        "userDefined": false
      },
      {
        "text": "class",
        "alias": "Activity",
        "meta": "@Activity",
        "userDefined": false
      },
      {
        "text": " types are",
        "userDefined": false
      }
    ],
    "isTemplate": false,
    "count": 0,
    "updated": 0
  },
  {
    "id": "9e3c3b7e-f376-4798-8448-7b515fc521d6",
    "data": [
      {
        "text": "What are the different ",
        "userDefined": false
      },
      {
        "text": "class",
        "alias": "Activity",
        "meta": "@Activity",
        "userDefined": false
      },
      {
        "text": " types",
        "userDefined": false
      }
    ],
    "isTemplate": false,
    "count": 0,
    "updated": 0
  },
  {
    "id": "13ef6cb5-2236-48b4-bad0-426dafc833e1",
    "data": [
      {
        "text": "what does a seminar look like",
        "userDefined": false
      }
    ],
    "isTemplate": false,
    "count": 0,
    "updated": 0
  },
  {
    "id": "5506ce4c-f984-4378-9f88-0c06a3341a9e",
    "data": [
      {
        "text": "what is prac",
        "userDefined": false
      }
    ],
    "isTemplate": false,
    "count": 0,
    "updated": 0
  },
  {
    "id": "bb15dce9-c81e-4e4e-810f-f57c61b9fdc3",
    "data": [
      {
        "text": "what is tute",
        "userDefined": false
      }
    ],
    "isTemplate": false,
    "count": 1,
    "updated": 0
  },
  {
    "id": "13a55186-c4f4-462e-ad5f-a2e993930ca1",
    "data": [
      {
        "text": "What is a tutorial support class",
        "userDefined": false
      }
    ],
    "isTemplate": false,
    "count": 0,
    "updated": 0
  },
  {
    "id": "67da164c-0a1f-468e-9cc3-033e30b9a0b3",
    "data": [
      {
        "text": "What are seminars",
        "userDefined": false
      }
    ],
    "isTemplate": false,
    "count": 0,
    "updated": 0
  },
  {
    "id": "7b00bec8-9cd6-4669-8d11-79a28eb84c37",
    "data": [
      {
        "text": "Difference between tutorials, workshops and lectures",
        "userDefined": false
      }
    ],
    "isTemplate": false,
    "count": 0,
    "updated": 0
  },
  {
    "id": "44320424-017d-415d-828a-074af76eabfa",
    "data": [
      {
        "text": "Different class types",
        "userDefined": false
      }
    ],
    "isTemplate": false,
    "count": 0,
    "updated": 0
  },
  {
    "id": "4422c865-29de-4ccd-87d0-93f49562873a",
    "data": [
      {
        "text": "What\u0027s a tutorial",
        "userDefined": false
      }
    ],
    "isTemplate": false,
    "count": 0,
    "updated": 0
  },
  {
    "id": "1b850bc0-5c4a-4ee1-bcd3-abd01808f4b2",
    "data": [
      {
        "text": "What are workshops",
        "userDefined": false
      }
    ],
    "isTemplate": false,
    "count": 0,
    "updated": 0
  },
  {
    "id": "55b43702-7d19-4083-854a-7d418ce49b4d",
    "data": [
      {
        "text": "What does studio mean",
        "userDefined": false
      }
    ],
    "isTemplate": false,
    "count": 0,
    "updated": 0
  },
  {
    "id": "b71c0547-6ac6-440e-84fd-1a7e7ca56740",
    "data": [
      {
        "text": "How is a laboratory different to a practical",
        "userDefined": false
      }
    ],
    "isTemplate": false,
    "count": 0,
    "updated": 0
  },
  {
    "id": "af6d5bdb-ea55-42db-a798-2ad1590984e5",
    "data": [
      {
        "text": "What is an applied class",
        "userDefined": false
      }
    ],
    "isTemplate": false,
    "count": 1,
    "updated": 0
  },
  {
    "id": "2d1fa10e-81c5-4127-8205-7869e04d01ac",
    "data": [
      {
        "text": "What are the different activity types",
        "userDefined": false
      }
    ],
    "isTemplate": false,
    "count": 0,
    "updated": 0
  }
]