{
  "id": "5dacc953-774a-4014-b4cb-111c946db9ba",
  "name": "TIM 365 general class not allocated",
  "auto": true,
  "contexts": [],
  "responses": [
    {
      "resetContexts": false,
      "affectedContexts": [],
      "parameters": [
        {
          "id": "c643ef40-7338-4a8e-a300-92680f72fcbe",
          "required": false,
          "dataType": "@Activity",
          "name": "Activity",
          "value": "$Activity",
          "promptMessages": [],
          "noMatchPromptMessages": [],
          "noInputPromptMessages": [],
          "outputDialogContexts": [],
          "isList": false
        }
      ],
      "messages": [
        {
          "type": 0,
          "lang": "en",
          "condition": "",
          "speech": "\u003cp\u003eYou can\u0027t attend a class you\u0027re not allocated to.\u003c/p\u003e\n\n\u003cp\u003eIf you aren\u0027t allocated to one of your activities and all timeslots are full, see our FAQ: \u003ca href\u003d\"https://www.monash.edu/timetables?_hs-q\u003dFAQ-2326\" target\u003d\"_blank\" rel\u003d\"noopener noreferrer\"\u003eAll unit activities are full and I don\u0027t have a spot. What do I do?\u003c/a\u003e\u003c/p\u003e"
        }
      ],
      "defaultResponsePlatforms": {},
      "speech": []
    }
  ],
  "priority": 500000,
  "webhookUsed": false,
  "webhookForSlotFilling": false,
  "fallbackIntent": false,
  "events": [],
  "conditionalResponses": [],
  "condition": "",
  "conditionalFollowupEvents": []
}