[
  {
    "id": "68c5da86-fc30-4f18-b3db-12c8017ab88a",
    "data": [
      {
        "text": "I want to know what the ",
        "userDefined": false
      },
      {
        "text": "green",
        "meta": "@sys.ignore",
        "userDefined": false
      },
      {
        "text": " allocated button ",
        "userDefined": false
      },
      {
        "text": "allocate",
        "alias": "Allocate",
        "meta": "@Allocate",
        "userDefined": false
      }
    ],
    "isTemplate": false,
    "count": 0,
    "updated": 0
  },
  {
    "id": "b55124e1-9fb8-4157-94a0-dfdfa154f0eb",
    "data": [
      {
        "text": "What\u0027s the ",
        "userDefined": false
      },
      {
        "text": "green",
        "meta": "@sys.ignore",
        "userDefined": false
      },
      {
        "text": " allocated button mean",
        "userDefined": false
      }
    ],
    "isTemplate": false,
    "count": 0,
    "updated": 0
  },
  {
    "id": "e57e3e10-c61d-4c07-b0c1-6c59086c32d5",
    "data": [
      {
        "text": "If ",
        "userDefined": false
      },
      {
        "text": "it",
        "meta": "@sys.ignore",
        "userDefined": false
      },
      {
        "text": " says allocated, does that mean I go to that ",
        "userDefined": false
      },
      {
        "text": "class",
        "alias": "Activity",
        "meta": "@Activity",
        "userDefined": false
      }
    ],
    "isTemplate": false,
    "count": 0,
    "updated": 0
  },
  {
    "id": "eb8945ae-731c-4243-ac62-40e9a9d6f9df",
    "data": [
      {
        "text": "Does allocated mean I go to that ",
        "userDefined": false
      },
      {
        "text": "class",
        "alias": "Activity",
        "meta": "@Activity",
        "userDefined": false
      }
    ],
    "isTemplate": false,
    "count": 0,
    "updated": 0
  },
  {
    "id": "166e42ef-8716-46ea-84f7-173b55a51ec7",
    "data": [
      {
        "text": "On ",
        "userDefined": false
      },
      {
        "text": "allocate",
        "alias": "Allocate",
        "meta": "@Allocate",
        "userDefined": false
      },
      {
        "text": ", what does does allocated mean",
        "userDefined": false
      }
    ],
    "isTemplate": false,
    "count": 0,
    "updated": 0
  },
  {
    "id": "2b662cae-d1a8-465f-9cec-50e8d8aa1ec9",
    "data": [
      {
        "text": "What does allocated mean on ",
        "userDefined": false
      },
      {
        "text": "allocate",
        "alias": "Allocate",
        "meta": "@Allocate",
        "userDefined": false
      }
    ],
    "isTemplate": false,
    "count": 0,
    "updated": 0
  },
  {
    "id": "b8ddfa03-d0dd-4c12-9a10-9d5db67890ba",
    "data": [
      {
        "text": "What does allocated mean?",
        "userDefined": false
      }
    ],
    "isTemplate": false,
    "count": 0,
    "updated": 0
  },
  {
    "id": "de37b84b-6944-49e1-9689-ddf5df1bf241",
    "data": [
      {
        "text": "Does allocated mean the ",
        "userDefined": false
      },
      {
        "text": "class",
        "alias": "Activity",
        "meta": "@Activity",
        "userDefined": false
      },
      {
        "text": " I go to?",
        "userDefined": false
      }
    ],
    "isTemplate": false,
    "count": 0,
    "updated": 0
  },
  {
    "id": "e56fc094-d80b-441a-97cd-f44cc2c15dec",
    "data": [
      {
        "text": "What does the ",
        "userDefined": false
      },
      {
        "text": "green",
        "meta": "@sys.ignore",
        "userDefined": false
      },
      {
        "text": " allocated button mean?",
        "userDefined": false
      }
    ],
    "isTemplate": false,
    "count": 0,
    "updated": 0
  }
]