[
  {
    "id": "496ef6eb-b419-476e-b9d6-bf92c95e0c57",
    "data": [
      {
        "text": "What does the heart icon do on ",
        "userDefined": false
      },
      {
        "text": "allocate",
        "alias": "Allocate",
        "meta": "@Allocate",
        "userDefined": false
      }
    ],
    "isTemplate": false,
    "count": 0,
    "updated": 0
  },
  {
    "id": "1d6d53b2-bada-4574-8974-f0ce1d0d354b",
    "data": [
      {
        "text": "What does the heart icon mean on ",
        "userDefined": false
      },
      {
        "text": "allocate",
        "alias": "Allocate",
        "meta": "@Allocate",
        "userDefined": false
      }
    ],
    "isTemplate": false,
    "count": 0,
    "updated": 0
  },
  {
    "id": "2d821e28-2904-4a25-8e18-99f0f62b2ce7",
    "data": [
      {
        "text": "What\u0027s the heart icon on ",
        "userDefined": false
      },
      {
        "text": "allocate",
        "alias": "Allocate",
        "meta": "@Allocate",
        "userDefined": false
      }
    ],
    "isTemplate": false,
    "count": 0,
    "updated": 0
  },
  {
    "id": "a2fe32d5-6a5f-42cd-a95a-49aad7f6e928",
    "data": [
      {
        "text": "Why is there a heart on ",
        "userDefined": false
      },
      {
        "text": "allocate",
        "alias": "Allocate",
        "meta": "@Allocate",
        "userDefined": false
      }
    ],
    "isTemplate": false,
    "count": 0,
    "updated": 0
  },
  {
    "id": "1966f157-d6ad-40da-a204-065600f87c73",
    "data": [
      {
        "text": "What does the heart mean",
        "userDefined": false
      }
    ],
    "isTemplate": false,
    "count": 0,
    "updated": 0
  },
  {
    "id": "4014248e-43b0-4753-91f9-528c2a007e82",
    "data": [
      {
        "text": "What does the heart mean on ",
        "userDefined": false
      },
      {
        "text": "Allocate",
        "alias": "Allocate",
        "meta": "@Allocate",
        "userDefined": false
      }
    ],
    "isTemplate": false,
    "count": 0,
    "updated": 0
  },
  {
    "id": "896dc8e8-3fd7-4bb8-b487-abb3b8c475dd",
    "data": [
      {
        "text": "Why is there a love heart in ",
        "userDefined": false
      },
      {
        "text": "Allocate",
        "alias": "Allocate",
        "meta": "@Allocate",
        "userDefined": false
      },
      {
        "text": "?",
        "userDefined": false
      }
    ],
    "isTemplate": false,
    "count": 0,
    "updated": 0
  },
  {
    "id": "f9d3757d-8dec-4782-8567-bab16cb77221",
    "data": [
      {
        "text": "What does the heart do?",
        "userDefined": false
      }
    ],
    "isTemplate": false,
    "count": 0,
    "updated": 0
  },
  {
    "id": "b70c9750-c0b3-4922-baa9-c5623cc6577e",
    "data": [
      {
        "text": "What is the heart for?",
        "userDefined": false
      }
    ],
    "isTemplate": false,
    "count": 0,
    "updated": 0
  }
]