{
  "id": "a41666c6-ac93-40c1-b4ff-f409e276aaf9",
  "name": "TIM 365 general allocate whos teaching",
  "auto": true,
  "contexts": [],
  "responses": [
    {
      "resetContexts": false,
      "affectedContexts": [],
      "parameters": [
        {
          "id": "62eae6f1-ad5b-4335-9caa-0806f101126a",
          "required": false,
          "dataType": "@sys.date",
          "name": "date",
          "value": "$date",
          "promptMessages": [],
          "noMatchPromptMessages": [],
          "noInputPromptMessages": [],
          "outputDialogContexts": [],
          "isList": false
        },
        {
          "id": "f76fd7b6-b2b9-4172-9d91-ce3d695abbf4",
          "required": false,
          "dataType": "@sys.time",
          "name": "time",
          "value": "$time",
          "promptMessages": [],
          "noMatchPromptMessages": [],
          "noInputPromptMessages": [],
          "outputDialogContexts": [],
          "isList": false
        },
        {
          "id": "e3a543a9-c172-4713-aa38-c5c0bf017ed2",
          "required": false,
          "dataType": "@accountType",
          "name": "accountType",
          "value": "$accountType",
          "promptMessages": [],
          "noMatchPromptMessages": [],
          "noInputPromptMessages": [],
          "outputDialogContexts": [],
          "isList": false
        },
        {
          "id": "2b5d12e0-72f9-442b-ac0c-4b4680ca54fb",
          "required": false,
          "dataType": "@Allocate",
          "name": "Allocate",
          "value": "$Allocate",
          "promptMessages": [],
          "noMatchPromptMessages": [],
          "noInputPromptMessages": [],
          "outputDialogContexts": [],
          "isList": false
        },
        {
          "id": "be2366c1-4620-4644-b291-bfbef3d8b590",
          "required": false,
          "dataType": "@Activity",
          "name": "Activity",
          "value": "$Activity",
          "promptMessages": [],
          "noMatchPromptMessages": [],
          "noInputPromptMessages": [],
          "outputDialogContexts": [],
          "isList": false
        },
        {
          "id": "91fd8d2b-7385-4576-9874-ec0262b7f664",
          "required": false,
          "dataType": "@teacher",
          "name": "teacher",
          "value": "$teacher",
          "promptMessages": [],
          "noMatchPromptMessages": [],
          "noInputPromptMessages": [],
          "outputDialogContexts": [],
          "isList": false
        }
      ],
      "messages": [
        {
          "type": 0,
          "lang": "en",
          "condition": "",
          "speech": "The teaching staff may be listed for some activities. If this information is available, click on the activity while in calendar view to find out who will be taking the class."
        }
      ],
      "defaultResponsePlatforms": {},
      "speech": []
    }
  ],
  "priority": 500000,
  "webhookUsed": false,
  "webhookForSlotFilling": false,
  "fallbackIntent": false,
  "events": [],
  "conditionalResponses": [],
  "condition": "",
  "conditionalFollowupEvents": []
}