{
  "id": "a0427d9a-25ec-417a-bd04-a8a3be00d100",
  "name": "TIM 365 general allocate what is allocate",
  "auto": true,
  "contexts": [],
  "responses": [
    {
      "resetContexts": false,
      "affectedContexts": [],
      "parameters": [
        {
          "id": "769c45f5-307c-4f21-aa99-9b2161bbff05",
          "required": false,
          "dataType": "@Allocate",
          "name": "Allocate",
          "value": "$Allocate",
          "promptMessages": [],
          "noMatchPromptMessages": [],
          "noInputPromptMessages": [],
          "outputDialogContexts": [],
          "isList": false
        }
      ],
      "messages": [
        {
          "type": 0,
          "lang": "en",
          "condition": "",
          "speech": "\u003cp\u003e\u003ca href\u003d\"https://www.monash.edu/timetables/login\" target\u003d\"_blank\" rel\u003d\"noopener noreferrer\"\u003eAllocate+\u003c/a\u003e is an on-campus activity timetabling system. It lets you nominate your preferred activity times and sorts all preferences to create your personal timetable.\u003c/p\u003e\n\n\u003cp\u003eOnce allocated, it also lets you make changes to your timetable if places are available.\u003c/p\u003e\n\n\u003cp\u003eSee our web page on \u003ca href\u003d\"https://www.monash.edu/timetables/allocate/how-to-use\" target\u003d\"_blank\" rel\u003d\"noopener noreferrer\"\u003ehow to use Allocate+\u003c/a\u003e for information about Allocate+ and how to use it.\u003c/p\u003e\u003c/p\u003e"
        }
      ],
      "defaultResponsePlatforms": {},
      "speech": []
    }
  ],
  "priority": 500000,
  "webhookUsed": false,
  "webhookForSlotFilling": false,
  "fallbackIntent": false,
  "events": [],
  "conditionalResponses": [],
  "condition": "",
  "conditionalFollowupEvents": []
}