{
  "id": "ef58e143-9cc9-485e-a475-e97f14227317",
  "name": "TIM pref entry mode how many preferences",
  "auto": true,
  "contexts": [],
  "responses": [
    {
      "resetContexts": false,
      "affectedContexts": [],
      "parameters": [
        {
          "id": "c3625e6c-77f1-4366-bc4e-311ad2f93c6d",
          "required": false,
          "dataType": "@Allocate",
          "name": "Allocate",
          "value": "$Allocate",
          "promptMessages": [],
          "noMatchPromptMessages": [],
          "noInputPromptMessages": [],
          "outputDialogContexts": [],
          "isList": false
        },
        {
          "id": "96f876df-f2e7-4be1-8f03-d750bf8a9e52",
          "required": false,
          "dataType": "@sys.number",
          "name": "number1",
          "value": "$number1",
          "promptMessages": [],
          "noMatchPromptMessages": [],
          "noInputPromptMessages": [],
          "outputDialogContexts": [],
          "isList": false
        },
        {
          "id": "e92fb2f3-662f-4d5b-81d7-17a46bc20aa1",
          "required": false,
          "dataType": "@Activity",
          "name": "Activity",
          "value": "$Activity",
          "promptMessages": [],
          "noMatchPromptMessages": [],
          "noInputPromptMessages": [],
          "outputDialogContexts": [],
          "isList": false
        }
      ],
      "messages": [
        {
          "type": 0,
          "lang": "en",
          "condition": "",
          "speech": "\u003cp\u003eEach activity will have a minimum number of preferences you need to enter. You\u0027ll find the minimum number listed above the preference entry table for each activity.\u003c/p\u003e\n\n\u003cp\u003eOne (1) is your highest preference, so make sure you have preferences ranging from one to the minimum number.\u003c/p\u003e"
        }
      ],
      "defaultResponsePlatforms": {},
      "speech": []
    }
  ],
  "priority": 500000,
  "webhookUsed": false,
  "webhookForSlotFilling": false,
  "fallbackIntent": false,
  "events": [],
  "conditionalResponses": [],
  "condition": "",
  "conditionalFollowupEvents": []
}