[
  {
    "id": "35d80798-a8bd-45b0-8f0e-406765d601ad",
    "data": [
      {
        "text": "I don\u0027t know what the ",
        "userDefined": false
      },
      {
        "text": "green",
        "meta": "@sys.ignore",
        "userDefined": false
      },
      {
        "text": " tick means on ",
        "userDefined": false
      },
      {
        "text": "allocate",
        "alias": "Allocate",
        "meta": "@Allocate",
        "userDefined": false
      }
    ],
    "isTemplate": false,
    "count": 0,
    "updated": 0
  },
  {
    "id": "79a9b4e6-1cb7-4642-a7f6-bcfcf1ba1892",
    "data": [
      {
        "text": "Can you tell me what the ",
        "userDefined": false
      },
      {
        "text": "green",
        "meta": "@sys.ignore",
        "userDefined": false
      },
      {
        "text": " tick means on ",
        "userDefined": false
      },
      {
        "text": "allocate",
        "alias": "Allocate",
        "meta": "@Allocate",
        "userDefined": false
      }
    ],
    "isTemplate": false,
    "count": 0,
    "updated": 0
  },
  {
    "id": "55c9302f-b562-4a81-a70b-69df143f222e",
    "data": [
      {
        "text": "If there\u0027s a ",
        "userDefined": false
      },
      {
        "text": "green",
        "meta": "@sys.ignore",
        "userDefined": false
      },
      {
        "text": " tick, does that mean I\u0027ve been allocated to a ",
        "userDefined": false
      },
      {
        "text": "class",
        "alias": "Activity",
        "meta": "@Activity",
        "userDefined": false
      }
    ],
    "isTemplate": false,
    "count": 0,
    "updated": 0
  },
  {
    "id": "79419b31-2d46-4081-8e97-e7ec12e3243e",
    "data": [
      {
        "text": "Have I been allocated to a ",
        "userDefined": false
      },
      {
        "text": "class",
        "alias": "Activity",
        "meta": "@Activity",
        "userDefined": false
      },
      {
        "text": " if there\u0027s a ",
        "userDefined": false
      },
      {
        "text": "green",
        "meta": "@sys.ignore",
        "userDefined": false
      },
      {
        "text": " tick",
        "userDefined": false
      }
    ],
    "isTemplate": false,
    "count": 0,
    "updated": 0
  },
  {
    "id": "3d2a287e-8aef-4fd4-9350-051fc6bd6252",
    "data": [
      {
        "text": "On ",
        "userDefined": false
      },
      {
        "text": "allocate",
        "alias": "Allocate",
        "meta": "@Allocate",
        "userDefined": false
      },
      {
        "text": ", does the ",
        "userDefined": false
      },
      {
        "text": "green",
        "meta": "@sys.ignore",
        "userDefined": false
      },
      {
        "text": " tick mean I\u0027ve been allocated to a ",
        "userDefined": false
      },
      {
        "text": "class",
        "alias": "Activity",
        "meta": "@Activity",
        "userDefined": false
      }
    ],
    "isTemplate": false,
    "count": 0,
    "updated": 0
  },
  {
    "id": "db4cbe71-38eb-47ac-9fe0-79f826f2884e",
    "data": [
      {
        "text": "On ",
        "userDefined": false
      },
      {
        "text": "allocate",
        "alias": "Allocate",
        "meta": "@Allocate",
        "userDefined": false
      },
      {
        "text": ", what does the ",
        "userDefined": false
      },
      {
        "text": "green",
        "meta": "@sys.ignore",
        "userDefined": false
      },
      {
        "text": " tick mean",
        "userDefined": false
      }
    ],
    "isTemplate": false,
    "count": 0,
    "updated": 0
  },
  {
    "id": "39126ff5-3c5f-42ea-927f-1d7e5d18427d",
    "data": [
      {
        "text": "What does the ",
        "userDefined": false
      },
      {
        "text": "green",
        "meta": "@sys.ignore",
        "userDefined": false
      },
      {
        "text": " tick mean on ",
        "userDefined": false
      },
      {
        "text": "allocate",
        "alias": "Allocate",
        "meta": "@Allocate",
        "userDefined": false
      }
    ],
    "isTemplate": false,
    "count": 0,
    "updated": 0
  },
  {
    "id": "89177bf4-4256-4b45-8d87-5eb2b43442bc",
    "data": [
      {
        "text": "Does the green tick mean that I\u0027ve been allocated to a class?",
        "userDefined": false
      }
    ],
    "isTemplate": false,
    "count": 0,
    "updated": 0
  },
  {
    "id": "9fa1adfd-9f8c-468c-a17f-4ebc795f8baa",
    "data": [
      {
        "text": "What does the green tick mean?",
        "userDefined": false
      }
    ],
    "isTemplate": false,
    "count": 0,
    "updated": 0
  }
]