{
  "id": "af2e199b-3c0a-475d-97da-7cbbaa947e2d",
  "name": "booklist",
  "isOverridable": true,
  "isEnum": false,
  "isRegexp": false,
  "automatedExpansion": false,
  "allowFuzzyExtraction": false
}