{
  "id": "9f1e6640-b63d-4337-ab6b-1c075a662fc1",
  "name": "closed-book",
  "isOverridable": true,
  "isEnum": false,
  "isRegexp": false,
  "automatedExpansion": false,
  "allowFuzzyExtraction": false
}