{
  "id": "61dbec52-ed6c-441c-88cb-92ce06c0d6b1",
  "name": "Difficult",
  "isOverridable": true,
  "isEnum": false,
  "isRegexp": false,
  "automatedExpansion": false,
  "allowFuzzyExtraction": false
}