[
  {
    "value": "Art, Design and Architecture",
    "synonyms": [
      "Architecture",
      "Art, Design and Architecture",
      "Design",
      "MADA",
      "Archi"
    ]
  },
  {
    "value": "Arts",
    "synonyms": [
      "Arts"
    ]
  },
  {
    "value": "Business and Economics",
    "synonyms": [
      "Bus Eco",
      "Business and Economics",
      "Buseco",
      "Business",
      "Commerce"
    ]
  },
  {
    "value": "Education",
    "synonyms": [
      "Education"
    ]
  },
  {
    "value": "Engineering",
    "synonyms": [
      "Eng",
      "Engineering"
    ]
  },
  {
    "value": "Health Sciences",
    "synonyms": [
      "Health Sciences"
    ]
  },
  {
    "value": "Information Technology",
    "synonyms": [
      "Information Technology",
      "IT",
      "Infotech",
      "FIT"
    ]
  },
  {
    "value": "Law",
    "synonyms": [
      "Law"
    ]
  },
  {
    "value": "Medicine",
    "synonyms": [
      "Med",
      "Medicine"
    ]
  },
  {
    "value": "Nursing",
    "synonyms": [
      "Nursing"
    ]
  },
  {
    "value": "Pharmaceutical Sciences",
    "synonyms": [
      "Pharmaceutical Sciences",
      "Pharm Sci",
      "Pharmsci"
    ]
  },
  {
    "value": "Pharmacy",
    "synonyms": [
      "Pharmacy",
      "Pharm"
    ]
  },
  {
    "value": "Science",
    "synonyms": [
      "Sci",
      "Science"
    ]
  },
  {
    "value": "MNHS",
    "synonyms": [
      "MNHS",
      "Medicine Nursing and Health Sciences"
    ]
  }
]