[
  {
    "value": "Matheson",
    "synonyms": [
      "Matheson",
      "Matheson library",
      "Matho",
      "Arts library"
    ]
  },
  {
    "value": "Hargraves",
    "synonyms": [
      "Hargraves",
      "Hargraves andrew library",
      "Hal",
      "science library",
      "engineering library"
    ]
  },
  {
    "value": "Law",
    "synonyms": [
      "Law",
      "Law library",
      "Lawbry"
    ]
  },
  {
    "value": "Caulfield",
    "synonyms": [
      "Caulfield",
      "Caulfield library",
      "Monash caulfield library"
    ]
  },
  {
    "value": "Peninsula",
    "synonyms": [
      "Peninsula Library",
      "Peninsula"
    ]
  },
  {
    "value": "Pharmacy",
    "synonyms": [
      "Pharmacy",
      "Pharmacy library",
      "CL Butchers Library",
      "CL butchers pharmacy library"
    ]
  }
]