{
  "id": "6ca5fcb1-4097-47df-afa7-ab9bfe37d22a",
  "name": "MonashResult",
  "isOverridable": true,
  "isEnum": false,
  "isRegexp": false,
  "automatedExpansion": false,
  "allowFuzzyExtraction": false
}