[
  {
    "value": "Monashsport",
    "synonyms": [
      "Monash sport",
      "Monashsport",
      "sport center",
      "sport centre",
      "sportcenter",
      "sportcentre",
      "sports center",
      "sports centre",
      "sportscenter",
      "sportscentre"
    ]
  }
]