[
  {
    "value": "April",
    "synonyms": [
      "Apr",
      "April"
    ]
  },
  {
    "value": "August",
    "synonyms": [
      "Aug",
      "August"
    ]
  },
  {
    "value": "December",
    "synonyms": [
      "Dec",
      "December"
    ]
  },
  {
    "value": "February",
    "synonyms": [
      "Feb",
      "February"
    ]
  },
  {
    "value": "January",
    "synonyms": [
      "Jan",
      "January"
    ]
  },
  {
    "value": "July",
    "synonyms": [
      "Jul",
      "July"
    ]
  },
  {
    "value": "June",
    "synonyms": [
      "Jun",
      "June"
    ]
  },
  {
    "value": "March",
    "synonyms": [
      "Mar",
      "March"
    ]
  },
  {
    "value": "May",
    "synonyms": [
      "May"
    ]
  },
  {
    "value": "November",
    "synonyms": [
      "Nov",
      "November"
    ]
  },
  {
    "value": "October",
    "synonyms": [
      "Oct",
      "October"
    ]
  },
  {
    "value": "September",
    "synonyms": [
      "Sep",
      "September"
    ]
  }
]