{
  "id": "ad0c47b4-d356-49d8-9873-91465f1ce399",
  "name": "OnCampus",
  "isOverridable": true,
  "isEnum": false,
  "isRegexp": false,
  "automatedExpansion": false,
  "allowFuzzyExtraction": false
}