[
  {
    "value": "OSHC",
    "synonyms": [
      "OSHC",
      "OSHC membership",
      "insurance",
      "overseas insurance",
      "overseas student health cover",
      "overseas student health cover membership"
    ]
  }
]