{
  "id": "f85454a8-d7b0-49a6-8102-9b7d1fe97e2e",
  "name": "Part-time",
  "isOverridable": true,
  "isEnum": false,
  "isRegexp": false,
  "automatedExpansion": false,
  "allowFuzzyExtraction": false
}