[
  {
    "value": "Drink",
    "synonyms": [
      "Beer",
      "Drink",
      "Drinks",
      "Spirits",
      "Wine"
    ]
  },
  {
    "value": "Hot food",
    "synonyms": [
      "Hot food"
    ]
  },
  {
    "value": "Refreshments",
    "synonyms": [
      "Refreshment",
      "Refreshments"
    ]
  },
  {
    "value": "Snacks",
    "synonyms": [
      "Canapes",
      "Finger food",
      "Snacks"
    ]
  }
]